21-08-05 12:17:13|TAG|0|5|1.5|10|0.25|500|1195131|0:00:00.097845|100|4|2
21-08-05 12:17:14|TAG|1|5|1.5|10|0.25|500|458663|0:00:00.163580|87|0|2
21-08-05 12:17:14|TAG|2|5|1.5|10|0.25|500|365736|0:00:00.086007|97|2|2
21-08-05 12:17:16|TAG|3|5|1.5|10|0.25|500|836360|0:00:00.560634|98|2|2
21-08-05 12:17:16|TAG|4|5|1.5|10|0.25|500|328552|0:00:00.047477|100|2|2
21-08-05 12:17:17|TAG|5|5|1.5|10|0.25|500|394085|0:00:00.120466|91|1|2
21-08-05 12:17:18|TAG|6|5|1.5|10|0.25|500|358216|0:00:00.079221|98|1|2
21-08-05 12:17:18|TAG|7|5|1.5|10|0.25|500|422767|0:00:00.145324|100|0|2
21-08-05 12:17:19|TAG|8|5|1.5|10|0.25|500|383048|0:00:00.107821|84|2|2
21-08-05 12:17:20|TAG|9|5|1.5|10|0.25|500|664691|0:00:00.376641|80|0|2
21-08-05 12:17:20|TAG|10|5|1.5|10|0.25|500|325348|0:00:00.040269|100|2|2
21-08-05 12:17:21|TAG|11|5|1.5|10|0.25|500|341109|0:00:00.070114|100|0|2
21-08-05 12:17:22|TAG|12|5|1.5|10|0.25|500|331680|0:00:00.059321|98|2|2
21-08-05 12:17:22|TAG|13|5|1.5|10|0.25|500|337023|0:00:00.059916|85|0|2
21-08-05 12:17:23|TAG|14|5|1.5|10|0.25|500|722385|0:00:00.445784|94|3|2
21-08-05 12:17:24|TAG|15|5|1.5|10|0.25|500|360137|0:00:00.087447|100|2|2
21-08-05 12:17:25|TAG|16|5|1.5|10|0.25|500|441524|0:00:00.156632|93|1|2
21-08-05 12:17:26|TAG|17|5|1.5|10|0.25|500|530234|0:00:00.250840|74|0|2
21-08-05 12:17:26|TAG|18|5|1.5|10|0.25|500|346730|0:00:00.061089|100|1|2
21-08-05 12:17:27|TAG|19|5|1.5|10|0.25|500|321076|0:00:00.034308|100|1|2
21-08-05 12:17:28|TAG|20|5|1.5|10|0.25|500|352917|0:00:00.066649|96|3|2
21-08-05 12:17:29|TAG|21|5|1.5|10|0.25|500|671460|0:00:00.389664|61|1|2
21-08-05 12:17:29|TAG|22|5|1.5|10|0.25|500|314268|0:00:00.037725|88|1|2
21-08-05 12:17:30|TAG|23|5|1.5|10|0.25|500|508554|0:00:00.225759|87|0|2
21-08-05 12:17:31|TAG|24|5|1.5|10|0.25|500|935419|0:00:00.641580|93|0|2
21-08-05 12:17:32|TAG|25|5|1.5|10|0.25|500|409536|0:00:00.133365|100|1|2
21-08-05 12:17:33|TAG|26|5|1.5|10|0.25|500|327184|0:00:00.041816|76|1|2
21-08-05 12:17:33|TAG|27|5|1.5|10|0.25|500|396532|0:00:00.116960|96|5|2
21-08-05 12:17:34|TAG|28|5|1.5|10|0.25|500|392362|0:00:00.107814|98|0|2
21-08-05 12:17:35|TAG|29|5|1.5|10|0.25|500|352617|0:00:00.053052|100|4|2
21-08-05 12:17:35|TAG|30|5|1.5|10|0.25|500|385455|0:00:00.103699|83|0|2
21-08-05 12:17:36|TAG|31|5|1.5|10|0.25|500|370836|0:00:00.086641|100|4|2
21-08-05 12:17:37|TAG|32|5|1.5|10|0.25|500|333840|0:00:00.033560|100|5|2
21-08-05 12:17:37|TAG|33|5|1.5|10|0.25|500|464769|0:00:00.163127|94|0|2
21-08-05 12:17:38|TAG|34|5|1.5|10|0.25|500|363519|0:00:00.077058|100|2|2
21-08-05 12:17:39|TAG|35|5|1.5|10|0.25|500|337721|0:00:00.052856|100|1|2
21-08-05 12:17:39|TAG|36|5|1.5|10|0.25|500|304581|0:00:00.030830|84|4|2
21-08-05 12:17:40|TAG|37|5|1.5|10|0.25|500|406351|0:00:00.130990|91|1|2
21-08-05 12:17:41|TAG|38|5|1.5|10|0.25|500|343747|0:00:00.061475|77|4|2
21-08-05 12:17:41|TAG|39|5|1.5|10|0.25|500|381012|0:00:00.107644|94|0|2
21-08-05 12:17:42|TAG|40|5|1.5|10|0.25|500|430903|0:00:00.151725|100|3|2
21-08-05 12:17:43|TAG|41|5|1.5|10|0.25|500|355768|0:00:00.074868|96|6|2
21-08-05 12:17:43|TAG|42|5|1.5|10|0.25|500|395686|0:00:00.120389|100|1|2
21-08-05 12:17:44|TAG|43|5|1.5|10|0.25|500|328084|0:00:00.056696|100|0|2
21-08-05 12:17:45|TAG|44|5|1.5|10|0.25|500|470718|0:00:00.184781|95|0|2
21-08-05 12:17:45|TAG|45|5|1.5|10|0.25|500|356414|0:00:00.077707|96|5|2
21-08-05 12:17:46|TAG|46|5|1.5|10|0.25|500|343793|0:00:00.065601|100|5|2
21-08-05 12:17:47|TAG|47|5|1.5|10|0.25|500|326190|0:00:00.044688|100|0|2
21-08-05 12:17:47|TAG|48|5|1.5|10|0.25|500|401108|0:00:00.122176|100|0|2
21-08-05 12:17:48|TAG|49|5|1.5|10|0.25|500|326337|0:00:00.057433|90|1|2
21-08-05 12:17:49|TAG|50|5|1.5|10|0.25|500|371256|0:00:00.082923|100|0|2
21-08-05 12:17:49|TAG|51|5|1.5|10|0.25|500|351471|0:00:00.078015|100|1|2
21-08-05 12:17:50|TAG|52|5|1.5|10|0.25|500|330473|0:00:00.050228|100|4|2
21-08-05 12:17:51|TAG|53|5|1.5|10|0.25|500|489912|0:00:00.209956|90|4|2
21-08-05 12:17:51|TAG|54|5|1.5|10|0.25|500|395168|0:00:00.112235|82|2|2
21-08-05 12:17:52|TAG|55|5|1.5|10|0.25|500|418981|0:00:00.145626|82|3|2
21-08-05 12:17:53|TAG|56|5|1.5|10|0.25|500|316767|0:00:00.033305|97|5|2
21-08-05 12:17:53|TAG|57|5|1.5|10|0.25|500|331827|0:00:00.045272|88|3|2
21-08-05 12:17:54|TAG|58|5|1.5|10|0.25|500|534467|0:00:00.259811|99|14|2
21-08-05 12:17:55|TAG|59|5|1.5|10|0.25|500|342418|0:00:00.062072|97|1|2
21-08-05 12:17:56|TAG|60|5|1.5|10|0.25|500|557366|0:00:00.282926|84|0|2
21-08-05 12:17:56|TAG|61|5|1.5|10|0.25|500|333993|0:00:00.056557|100|2|2
21-08-05 12:17:57|TAG|62|5|1.5|10|0.25|500|407570|0:00:00.126302|81|4|2
21-08-05 12:17:58|TAG|63|5|1.5|10|0.25|500|432498|0:00:00.147840|94|0|2
21-08-05 12:17:58|TAG|64|5|1.5|10|0.25|500|336676|0:00:00.060816|93|1|2
21-08-05 12:17:59|TAG|65|5|1.5|10|0.25|500|461922|0:00:00.184115|97|0|2
21-08-05 12:18:00|TAG|66|5|1.5|10|0.25|500|332663|0:00:00.051193|93|0|2
21-08-05 12:18:00|TAG|67|5|1.5|10|0.25|500|329767|0:00:00.051770|94|4|2
21-08-05 12:18:01|TAG|68|5|1.5|10|0.25|500|376881|0:00:00.099382|99|0|2
21-08-05 12:18:02|TAG|69|5|1.5|10|0.25|500|407580|0:00:00.126958|91|0|2
21-08-05 12:18:03|TAG|70|5|1.5|10|0.25|500|1101907|0:00:00.798844|53|0|2
21-08-05 12:18:04|TAG|71|5|1.5|10|0.25|500|358299|0:00:00.059678|100|1|2
21-08-05 12:18:05|TAG|72|5|1.5|10|0.25|500|339386|0:00:00.063313|99|4|2
21-08-05 12:18:05|TAG|73|5|1.5|10|0.25|500|367750|0:00:00.094778|94|4|2
21-08-05 12:18:06|TAG|74|5|1.5|10|0.25|500|406072|0:00:00.124401|85|2|2
21-08-05 12:18:07|TAG|75|5|1.5|10|0.25|500|456822|0:00:00.178969|99|5|2
21-08-05 12:18:07|TAG|76|5|1.5|10|0.25|500|307796|0:00:00.033530|76|1|2
21-08-05 12:18:08|TAG|77|5|1.5|10|0.25|500|438558|0:00:00.145377|93|0|2
21-08-05 12:18:09|TAG|78|5|1.5|10|0.25|500|448520|0:00:00.172306|96|2|2
21-08-05 12:18:09|TAG|79|5|1.5|10|0.25|500|333637|0:00:00.058498|99|2|2
21-08-05 12:18:10|TAG|80|5|1.5|10|0.25|500|776800|0:00:00.497778|69|0|2
21-08-05 12:18:11|TAG|81|5|1.5|10|0.25|500|650313|0:00:00.371019|90|3|2
21-08-05 12:18:12|TAG|82|5|1.5|10|0.25|500|393470|0:00:00.114537|100|1|2
21-08-05 12:18:13|TAG|83|5|1.5|10|0.25|500|389835|0:00:00.113785|100|0|2
21-08-05 12:18:14|TAG|84|5|1.5|10|0.25|500|402585|0:00:00.051844|100|1|2
21-08-05 12:18:14|TAG|85|5|1.5|10|0.25|500|440729|0:00:00.102392|98|0|2
21-08-05 12:18:15|TAG|86|5|1.5|10|0.25|500|534097|0:00:00.212372|75|0|2
21-08-05 12:18:16|TAG|87|5|1.5|10|0.25|500|425638|0:00:00.147989|97|15|2
21-08-05 12:18:17|TAG|88|5|1.5|10|0.25|500|415762|0:00:00.140307|89|0|2
21-08-05 12:18:17|TAG|89|5|1.5|10|0.25|500|344798|0:00:00.070395|97|1|2
21-08-05 12:18:18|TAG|90|5|1.5|10|0.25|500|347503|0:00:00.053050|100|2|2
21-08-05 12:18:19|TAG|91|5|1.5|10|0.25|500|424439|0:00:00.147777|100|2|2
21-08-05 12:18:19|TAG|92|5|1.5|10|0.25|500|392655|0:00:00.120439|87|5|2
21-08-05 12:18:20|TAG|93|5|1.5|10|0.25|500|431107|0:00:00.072342|97|0|2
21-08-05 12:18:21|TAG|94|5|1.5|10|0.25|500|370820|0:00:00.089188|91|2|2
21-08-05 12:18:21|TAG|95|5|1.5|10|0.25|500|374012|0:00:00.098431|98|2|2
21-08-05 12:18:23|TAG|96|5|1.5|10|0.25|500|773151|0:00:00.495280|88|0|2
21-08-05 12:18:23|TAG|97|5|1.5|10|0.25|500|395985|0:00:00.082010|82|10|2
21-08-05 12:18:24|TAG|98|5|1.5|10|0.25|500|375573|0:00:00.034251|89|0|2
21-08-05 12:18:25|TAG|99|5|1.5|10|0.25|500|443787|0:00:00.100206|100|0|2
21-08-05 12:18:26|TAG|100|5|1.5|10|0.25|500|384969|0:00:00.040818|100|3|2
21-08-05 12:18:27|TAG|101|5|1.5|10|0.25|500|853571|0:00:00.506501|54|3|2
21-08-05 12:18:28|TAG|102|5|1.5|10|0.25|500|357973|0:00:00.037321|96|0|2
21-08-05 12:18:28|TAG|103|5|1.5|10|0.25|500|389773|0:00:00.064632|99|4|2
21-08-05 12:18:29|TAG|104|5|1.5|10|0.25|500|479803|0:00:00.154714|93|0|2
21-08-05 12:18:31|TAG|105|5|1.5|10|0.25|500|1362780|0:00:01.076250|98|0|2
21-08-05 12:18:31|TAG|106|5|1.5|10|0.25|500|348509|0:00:00.064564|100|2|2
21-08-05 12:18:32|TAG|107|5|1.5|10|0.25|500|320578|0:00:00.033952|100|0|2
21-08-05 12:18:33|TAG|108|5|1.5|10|0.25|500|426299|0:00:00.142614|93|0|2
21-08-05 12:18:34|TAG|109|5|1.5|10|0.25|500|468249|0:00:00.155882|100|0|2
21-08-05 12:18:34|TAG|110|5|1.5|10|0.25|500|479134|0:00:00.111893|100|2|2
21-08-05 12:18:35|TAG|111|5|1.5|10|0.25|500|412915|0:00:00.055367|100|0|2
21-08-05 12:18:36|TAG|112|5|1.5|10|0.25|500|434225|0:00:00.066551|100|0|2
21-08-05 12:18:37|TAG|113|5|1.5|10|0.25|500|685536|0:00:00.316333|97|3|2
21-08-05 12:18:38|TAG|114|5|1.5|10|0.25|500|436751|0:00:00.062553|76|0|2
21-08-05 12:18:40|TAG|115|5|1.5|10|0.25|500|1320371|0:00:00.948726|85|0|2
21-08-05 12:18:41|TAG|116|5|1.5|10|0.25|500|590301|0:00:00.226658|99|13|2
21-08-05 12:18:42|TAG|117|5|1.5|10|0.25|500|698962|0:00:00.336420|92|1|2
21-08-05 12:18:43|TAG|118|5|1.5|10|0.25|500|447088|0:00:00.085375|100|0|2
21-08-05 12:18:43|TAG|119|5|1.5|10|0.25|500|334315|0:00:00.037505|100|2|2
21-08-05 12:18:44|TAG|120|5|1.5|10|0.25|500|482523|0:00:00.120643|100|0|2
21-08-05 12:18:45|TAG|121|5|1.5|10|0.25|500|587723|0:00:00.225128|93|1|2
21-08-05 12:18:47|TAG|122|5|1.5|10|0.25|500|1323431|0:00:00.964242|92|0|2
21-08-05 12:18:48|TAG|123|5|1.5|10|0.25|500|770519|0:00:00.413251|93|0|2
21-08-05 12:18:49|TAG|124|5|1.5|10|0.25|500|499665|0:00:00.148486|98|4|2
21-08-05 12:18:50|TAG|125|5|1.5|10|0.25|500|493375|0:00:00.136561|72|0|2
21-08-05 12:18:51|TAG|126|5|1.5|10|0.25|500|939388|0:00:00.583729|99|0|2
21-08-05 12:18:52|TAG|127|5|1.5|10|0.25|500|809003|0:00:00.454370|98|0|2
21-08-05 12:18:53|TAG|128|5|1.5|10|0.25|500|432623|0:00:00.080288|100|0|2
21-08-05 12:18:54|TAG|129|5|1.5|10|0.25|500|465359|0:00:00.168946|100|4|2
21-08-05 12:18:55|TAG|130|5|1.5|10|0.25|500|503158|0:00:00.152385|92|3|2
21-08-05 12:18:55|TAG|131|5|1.5|10|0.25|500|492577|0:00:00.137523|98|0|2
21-08-05 12:18:56|TAG|132|5|1.5|10|0.25|500|500229|0:00:00.147034|93|0|2
21-08-05 12:18:57|TAG|133|5|1.5|10|0.25|500|544373|0:00:00.193202|100|6|2
21-08-05 12:18:58|TAG|134|5|1.5|10|0.25|500|424610|0:00:00.074829|94|0|2
21-08-05 12:18:59|TAG|135|5|1.5|10|0.25|500|536627|0:00:00.189551|86|5|2
21-08-05 12:19:00|TAG|136|5|1.5|10|0.25|500|436511|0:00:00.090488|100|0|2
21-08-05 12:19:00|TAG|137|5|1.5|10|0.25|500|416137|0:00:00.069557|98|0|2
21-08-05 12:19:01|TAG|138|5|1.5|10|0.25|500|447683|0:00:00.099737|85|6|2
21-08-05 12:19:02|TAG|139|5|1.5|10|0.25|500|481864|0:00:00.136832|99|1|2
21-08-05 12:19:03|TAG|140|5|1.5|10|0.25|500|416279|0:00:00.070462|100|1|2
21-08-05 12:19:04|TAG|141|5|1.5|10|0.25|500|379706|0:00:00.095419|85|0|2
21-08-05 12:19:05|TAG|142|5|1.5|10|0.25|500|998436|0:00:00.649650|91|0|2
21-08-05 12:19:06|TAG|143|5|1.5|10|0.25|500|470190|0:00:00.124013|87|4|2
21-08-05 12:19:07|TAG|144|5|1.5|10|0.25|500|675742|0:00:00.332944|84|2|2
21-08-05 12:19:08|TAG|145|5|1.5|10|0.25|500|535762|0:00:00.191207|91|2|2
21-08-05 12:19:09|TAG|146|5|1.5|10|0.25|500|464802|0:00:00.121631|95|0|2
21-08-05 12:19:09|TAG|147|5|1.5|10|0.25|500|462905|0:00:00.112798|94|1|2
21-08-05 12:19:10|TAG|148|5|1.5|10|0.25|500|457729|0:00:00.115114|100|3|2
21-08-05 12:19:12|TAG|149|5|1.5|10|0.25|500|1052827|0:00:00.710598|94|0|2
21-08-05 12:19:12|TAG|150|5|1.5|10|0.25|500|432728|0:00:00.087835|100|1|2
21-08-05 12:19:13|TAG|151|5|1.5|10|0.25|500|360862|0:00:00.041748|100|0|2
21-08-05 12:19:14|TAG|152|5|1.5|10|0.25|500|378138|0:00:00.086720|94|0|2
21-08-05 12:19:15|TAG|153|5|1.5|10|0.25|500|614327|0:00:00.271105|99|1|2
21-08-05 12:19:16|TAG|154|5|1.5|10|0.25|500|466197|0:00:00.123861|90|4|2
21-08-05 12:19:16|TAG|155|5|1.5|10|0.25|500|411346|0:00:00.068048|91|0|2
21-08-05 12:19:17|TAG|156|5|1.5|10|0.25|500|556272|0:00:00.214567|98|5|2
21-08-05 12:19:18|TAG|157|5|1.5|10|0.25|500|387674|0:00:00.046032|97|1|2
21-08-05 12:19:19|TAG|158|5|1.5|10|0.25|500|383390|0:00:00.044004|100|1|2
21-08-05 12:19:20|TAG|159|5|1.5|10|0.25|500|451003|0:00:00.107903|100|0|2
21-08-05 12:19:20|TAG|160|5|1.5|10|0.25|500|388463|0:00:00.045682|100|1|2
21-08-05 12:19:21|TAG|161|5|1.5|10|0.25|500|506833|0:00:00.162727|80|0|2
21-08-05 12:19:22|TAG|162|5|1.5|10|0.25|500|383536|0:00:00.040395|80|1|2
21-08-05 12:19:23|TAG|163|5|1.5|10|0.25|500|592090|0:00:00.247585|82|3|2
21-08-05 12:19:23|TAG|164|5|1.5|10|0.25|500|321833|0:00:00.037705|99|3|2
21-08-05 12:19:24|TAG|165|5|1.5|10|0.25|500|417255|0:00:00.073333|95|0|2
21-08-05 12:19:25|TAG|166|5|1.5|10|0.25|500|442843|0:00:00.103191|57|1|2
21-08-05 12:19:26|TAG|167|5|1.5|10|0.25|500|436478|0:00:00.093876|100|6|2
21-08-05 12:19:27|TAG|168|5|1.5|10|0.25|500|419296|0:00:00.080490|98|0|2
21-08-05 12:19:28|TAG|169|5|1.5|10|0.25|500|754720|0:00:00.411728|85|1|2
21-08-05 12:19:29|TAG|170|5|1.5|10|0.25|500|437858|0:00:00.093353|100|1|2
21-08-05 12:19:30|TAG|171|5|1.5|10|0.25|500|674036|0:00:00.327349|95|2|2
21-08-05 12:19:30|TAG|172|5|1.5|10|0.25|500|461582|0:00:00.118287|100|6|2
21-08-05 12:19:31|TAG|173|5|1.5|10|0.25|500|376212|0:00:00.036764|100|1|2
21-08-05 12:19:32|TAG|174|5|1.5|10|0.25|500|399846|0:00:00.047247|84|1|2
21-08-05 12:19:33|TAG|175|5|1.5|10|0.25|500|539382|0:00:00.132144|87|1|2
21-08-05 12:19:34|TAG|176|5|1.5|10|0.25|500|482544|0:00:00.159760|100|0|2
21-08-05 12:19:34|TAG|177|5|1.5|10|0.25|500|417136|0:00:00.077560|97|0|2
21-08-05 12:19:35|TAG|178|5|1.5|10|0.25|500|386584|0:00:00.047186|100|1|2
21-08-05 12:19:36|TAG|179|5|1.5|10|0.25|500|453447|0:00:00.113984|85|4|2
21-08-05 12:19:37|TAG|180|5|1.5|10|0.25|500|667817|0:00:00.311417|93|12|2
21-08-05 12:19:38|TAG|181|5|1.5|10|0.25|500|389261|0:00:00.045532|100|3|2
21-08-05 12:19:38|TAG|182|5|1.5|10|0.25|500|393945|0:00:00.050457|100|2|2
21-08-05 12:19:39|TAG|183|5|1.5|10|0.25|500|452553|0:00:00.108162|98|7|2
21-08-05 12:19:40|TAG|184|5|1.5|10|0.25|500|468898|0:00:00.129164|100|0|2
21-08-05 12:19:41|TAG|185|5|1.5|10|0.25|500|390926|0:00:00.051612|100|1|2
21-08-05 12:19:42|TAG|186|5|1.5|10|0.25|500|415914|0:00:00.072284|88|1|2
21-08-05 12:19:42|TAG|187|5|1.5|10|0.25|500|463474|0:00:00.121001|100|4|2
21-08-05 12:19:43|TAG|188|5|1.5|10|0.25|500|454842|0:00:00.122944|82|5|2
21-08-05 12:19:44|TAG|189|5|1.5|10|0.25|500|394197|0:00:00.117805|84|2|2
21-08-05 12:19:45|TAG|190|5|1.5|10|0.25|500|384864|0:00:00.044271|94|0|2
21-08-05 12:19:45|TAG|191|5|1.5|10|0.25|500|447406|0:00:00.103600|99|1|2
21-08-05 12:19:47|TAG|192|5|1.5|10|0.25|500|1435054|0:00:01.093668|93|0|2
21-08-05 12:19:48|TAG|193|5|1.5|10|0.25|500|410139|0:00:00.068677|88|1|2
21-08-05 12:19:49|TAG|194|5|1.5|10|0.25|500|450941|0:00:00.109466|94|0|2
21-08-05 12:19:50|TAG|195|5|1.5|10|0.25|500|409057|0:00:00.066645|86|0|2
21-08-05 12:19:50|TAG|196|5|1.5|10|0.25|500|433869|0:00:00.090994|96|0|2
21-08-05 12:19:51|TAG|197|5|1.5|10|0.25|500|412418|0:00:00.065392|90|0|2
21-08-05 12:19:52|TAG|198|5|1.5|10|0.25|500|467264|0:00:00.122804|93|3|2
21-08-05 12:19:53|TAG|199|5|1.5|10|0.25|500|530692|0:00:00.191796|88|5|2
21-08-05 12:19:54|TAG|0|5|1.5|10|0.25|500|376763|0:00:00.078680|100|4|3
21-08-05 12:19:54|TAG|1|5|1.5|10|0.25|500|496705|0:00:00.190017|87|0|3
21-08-05 12:19:55|TAG|2|5|1.5|10|0.25|500|434190|0:00:00.093601|97|2|3
21-08-05 12:19:57|TAG|3|5|1.5|10|0.25|500|1064533|0:00:00.724174|97|1|3
21-08-05 12:19:57|TAG|4|5|1.5|10|0.25|500|413643|0:00:00.070706|100|2|3
21-08-05 12:19:58|TAG|5|5|1.5|10|0.25|500|481717|0:00:00.143473|91|1|3
21-08-05 12:19:59|TAG|6|5|1.5|10|0.25|500|452054|0:00:00.110154|100|3|3
21-08-05 12:20:00|TAG|7|5|1.5|10|0.25|500|617979|0:00:00.273929|99|0|3
21-08-05 12:20:01|TAG|8|5|1.5|10|0.25|500|469406|0:00:00.129228|85|3|3
21-08-05 12:20:02|TAG|9|5|1.5|10|0.25|500|992945|0:00:00.643660|86|5|3
21-08-05 12:20:03|TAG|10|5|1.5|10|0.25|500|403078|0:00:00.058340|94|2|3
21-08-05 12:20:04|TAG|11|5|1.5|10|0.25|500|408576|0:00:00.120390|100|2|3
21-08-05 12:20:05|TAG|12|5|1.5|10|0.25|500|552121|0:00:00.240935|98|7|3
21-08-05 12:20:05|TAG|13|5|1.5|10|0.25|500|411240|0:00:00.067702|85|0|3
21-08-05 12:20:07|TAG|14|5|1.5|10|0.25|500|1774643|0:00:01.434712|97|16|3
21-08-05 12:20:08|TAG|15|5|1.5|10|0.25|500|484621|0:00:00.146277|80|2|3
21-08-05 12:20:09|TAG|16|5|1.5|10|0.25|500|516166|0:00:00.175261|93|2|3
21-08-05 12:20:11|TAG|17|5|1.5|10|0.25|500|1447129|0:00:01.103853|93|9|3
21-08-05 12:20:12|TAG|18|5|1.5|10|0.25|500|424145|0:00:00.082244|100|1|3
21-08-05 12:20:12|TAG|19|5|1.5|10|0.25|500|373883|0:00:00.039588|100|1|3
21-08-05 12:20:13|TAG|20|5|1.5|10|0.25|500|401965|0:00:00.072553|96|3|3
21-08-05 12:20:14|TAG|21|5|1.5|10|0.25|500|732830|0:00:00.445635|98|4|3
21-08-05 12:20:15|TAG|22|5|1.5|10|0.25|500|384032|0:00:00.046271|88|1|3
21-08-05 12:20:16|TAG|23|5|1.5|10|0.25|500|1154764|0:00:00.811393|36|0|3
21-08-05 12:20:18|TAG|24|5|1.5|10|0.25|500|1058972|0:00:00.721194|93|0|3
21-08-05 12:20:19|TAG|25|5|1.5|10|0.25|500|871649|0:00:00.526258|100|3|3
21-08-05 12:20:20|TAG|26|5|1.5|10|0.25|500|382650|0:00:00.044805|76|1|3
21-08-05 12:20:21|TAG|27|5|1.5|10|0.25|500|434076|0:00:00.091130|96|6|3
21-08-05 12:20:21|TAG|28|5|1.5|10|0.25|500|455873|0:00:00.113963|98|0|3
21-08-05 12:20:22|TAG|29|5|1.5|10|0.25|500|399349|0:00:00.059159|100|4|3
21-08-05 12:20:23|TAG|30|5|1.5|10|0.25|500|455506|0:00:00.114178|90|0|3
21-08-05 12:20:24|TAG|31|5|1.5|10|0.25|500|359297|0:00:00.080176|100|4|3
21-08-05 12:20:24|TAG|32|5|1.5|10|0.25|500|326240|0:00:00.035166|100|5|3
21-08-05 12:20:25|TAG|33|5|1.5|10|0.25|500|723448|0:00:00.387038|65|7|3
21-08-05 12:20:26|TAG|34|5|1.5|10|0.25|500|423834|0:00:00.082653|100|2|3
21-08-05 12:20:27|TAG|35|5|1.5|10|0.25|500|402319|0:00:00.060019|100|1|3
21-08-05 12:20:28|TAG|36|5|1.5|10|0.25|500|378535|0:00:00.035267|84|4|3
21-08-05 12:20:29|TAG|37|5|1.5|10|0.25|500|492127|0:00:00.148517|92|1|3
21-08-05 12:20:29|TAG|38|5|1.5|10|0.25|500|460916|0:00:00.123325|77|6|3
21-08-05 12:20:30|TAG|39|5|1.5|10|0.25|500|510348|0:00:00.168376|94|3|3
21-08-05 12:20:31|TAG|40|5|1.5|10|0.25|500|518431|0:00:00.176638|100|3|3
21-08-05 12:20:32|TAG|41|5|1.5|10|0.25|500|514634|0:00:00.172998|96|8|3
21-08-05 12:20:33|TAG|42|5|1.5|10|0.25|500|684748|0:00:00.344619|48|0|3
21-08-05 12:20:34|TAG|43|5|1.5|10|0.25|500|335263|0:00:00.055322|100|0|3
21-08-05 12:20:34|TAG|44|5|1.5|10|0.25|500|520885|0:00:00.234350|95|4|3
21-08-05 12:20:35|TAG|45|5|1.5|10|0.25|500|439458|0:00:00.096802|96|5|3
21-08-05 12:20:36|TAG|46|5|1.5|10|0.25|500|415771|0:00:00.076694|100|5|3
21-08-05 12:20:37|TAG|47|5|1.5|10|0.25|500|390886|0:00:00.051347|100|0|3
21-08-05 12:20:38|TAG|48|5|1.5|10|0.25|500|485286|0:00:00.142847|100|0|3
21-08-05 12:20:38|TAG|49|5|1.5|10|0.25|500|411075|0:00:00.072629|90|4|3
21-08-05 12:20:39|TAG|50|5|1.5|10|0.25|500|491975|0:00:00.151041|100|1|3
21-08-05 12:20:40|TAG|51|5|1.5|10|0.25|500|436035|0:00:00.094834|100|4|3
21-08-05 12:20:41|TAG|52|5|1.5|10|0.25|500|388539|0:00:00.048999|100|4|3
21-08-05 12:20:42|TAG|53|5|1.5|10|0.25|500|1137157|0:00:00.796588|96|4|3
21-08-05 12:20:43|TAG|54|5|1.5|10|0.25|500|530122|0:00:00.190609|84|2|3
21-08-05 12:20:44|TAG|55|5|1.5|10|0.25|500|417022|0:00:00.139450|82|3|3
21-08-05 12:20:45|TAG|56|5|1.5|10|0.25|500|336160|0:00:00.038101|97|5|3
21-08-05 12:20:45|TAG|57|5|1.5|10|0.25|500|436692|0:00:00.096507|88|4|3
21-08-05 12:20:47|TAG|58|5|1.5|10|0.25|500|1478855|0:00:01.137666|99|16|3
21-08-05 12:20:48|TAG|59|5|1.5|10|0.25|500|465684|0:00:00.124602|98|3|3
21-08-05 12:20:49|TAG|60|5|1.5|10|0.25|500|658961|0:00:00.313534|88|0|3
21-08-05 12:20:50|TAG|61|5|1.5|10|0.25|500|409158|0:00:00.068250|100|2|3
21-08-05 12:20:51|TAG|62|5|1.5|10|0.25|500|495338|0:00:00.151092|81|4|3
21-08-05 12:20:51|TAG|63|5|1.5|10|0.25|500|506968|0:00:00.165760|94|0|3
21-08-05 12:20:52|TAG|64|5|1.5|10|0.25|500|413483|0:00:00.071958|93|1|3
21-08-05 12:20:53|TAG|65|5|1.5|10|0.25|500|556310|0:00:00.213257|97|0|3
21-08-05 12:20:54|TAG|66|5|1.5|10|0.25|500|349003|0:00:00.048049|100|1|3
21-08-05 12:20:54|TAG|67|5|1.5|10|0.25|500|358283|0:00:00.057021|94|5|3
21-08-05 12:20:55|TAG|68|5|1.5|10|0.25|500|587133|0:00:00.252619|99|6|3
21-08-05 12:20:56|TAG|69|5|1.5|10|0.25|500|585894|0:00:00.244270|91|0|3
21-08-05 12:20:58|TAG|70|5|1.5|10|0.25|500|1128017|0:00:00.786870|90|1|3
21-08-05 12:20:59|TAG|71|5|1.5|10|0.25|500|378393|0:00:00.037306|100|1|3
21-08-05 12:20:59|TAG|72|5|1.5|10|0.25|500|402541|0:00:00.058783|99|4|3
21-08-05 12:21:00|TAG|73|5|1.5|10|0.25|500|615230|0:00:00.275234|95|6|3
21-08-05 12:21:01|TAG|74|5|1.5|10|0.25|500|521472|0:00:00.180771|87|1|3
21-08-05 12:21:03|TAG|75|5|1.5|10|0.25|500|1061991|0:00:00.721948|99|11|3
21-08-05 12:21:03|TAG|76|5|1.5|10|0.25|500|362696|0:00:00.034527|76|1|3
21-08-05 12:21:04|TAG|77|5|1.5|10|0.25|500|775707|0:00:00.497030|93|14|3
21-08-05 12:21:05|TAG|78|5|1.5|10|0.25|500|667113|0:00:00.327692|96|9|3
21-08-05 12:21:06|TAG|79|5|1.5|10|0.25|500|424348|0:00:00.082421|100|3|3
21-08-05 12:21:08|TAG|80|5|1.5|10|0.25|500|1153208|0:00:00.809121|82|5|3
21-08-05 12:21:09|TAG|81|5|1.5|10|0.25|500|847754|0:00:00.498447|95|4|3
21-08-05 12:21:10|TAG|82|5|1.5|10|0.25|500|500408|0:00:00.159882|75|1|3
21-08-05 12:21:11|TAG|83|5|1.5|10|0.25|500|452449|0:00:00.111369|97|1|3
21-08-05 12:21:11|TAG|84|5|1.5|10|0.25|500|391595|0:00:00.047763|100|1|3
21-08-05 12:21:12|TAG|85|5|1.5|10|0.25|500|601594|0:00:00.259241|98|5|3
21-08-05 12:21:13|TAG|86|5|1.5|10|0.25|500|632046|0:00:00.293019|82|0|3
21-08-05 12:21:14|TAG|87|5|1.5|10|0.25|500|627051|0:00:00.348083|96|20|3
21-08-05 12:21:15|TAG|88|5|1.5|10|0.25|500|487758|0:00:00.148395|92|0|3
21-08-05 12:21:16|TAG|89|5|1.5|10|0.25|500|420497|0:00:00.077188|97|2|3
21-08-05 12:21:17|TAG|90|5|1.5|10|0.25|500|405507|0:00:00.063917|100|2|3
21-08-05 12:21:18|TAG|91|5|1.5|10|0.25|500|687242|0:00:00.344962|42|0|3
21-08-05 12:21:19|TAG|92|5|1.5|10|0.25|500|854526|0:00:00.515654|79|8|3
21-08-05 12:21:20|TAG|93|5|1.5|10|0.25|500|441995|0:00:00.101394|97|4|3
21-08-05 12:21:21|TAG|94|5|1.5|10|0.25|500|643607|0:00:00.305799|91|7|3
21-08-05 12:21:21|TAG|95|5|1.5|10|0.25|500|443860|0:00:00.103250|98|4|3
21-08-05 12:21:23|TAG|96|5|1.5|10|0.25|500|1500505|0:00:01.156016|96|12|3
21-08-05 12:21:24|TAG|97|5|1.5|10|0.25|500|341086|0:00:00.065733|82|10|3
21-08-05 12:21:25|TAG|98|5|1.5|10|0.25|500|306922|0:00:00.028896|89|0|3
21-08-05 12:21:25|TAG|99|5|1.5|10|0.25|500|467200|0:00:00.127313|100|3|3
21-08-05 12:21:26|TAG|100|5|1.5|10|0.25|500|382401|0:00:00.038776|100|3|3
21-08-05 12:21:29|TAG|101|5|1.5|10|0.25|500|2494599|0:00:02.153894|80|15|3
21-08-05 12:21:30|TAG|102|5|1.5|10|0.25|500|384894|0:00:00.039215|96|0|3
21-08-05 12:21:30|TAG|103|5|1.5|10|0.25|500|406084|0:00:00.065248|99|4|3
21-08-05 12:21:31|TAG|104|5|1.5|10|0.25|500|539478|0:00:00.199101|94|2|3
21-08-05 12:21:33|TAG|105|5|1.5|10|0.25|500|1525777|0:00:01.182715|98|0|3
21-08-05 12:21:34|TAG|106|5|1.5|10|0.25|500|357640|0:00:00.080714|100|2|3
21-08-05 12:21:34|TAG|107|5|1.5|10|0.25|500|310045|0:00:00.036646|100|1|3
21-08-05 12:21:35|TAG|108|5|1.5|10|0.25|500|554602|0:00:00.213647|93|3|3
21-08-05 12:21:36|TAG|109|5|1.5|10|0.25|500|477821|0:00:00.137660|95|3|3
21-08-05 12:21:37|TAG|110|5|1.5|10|0.25|500|439770|0:00:00.098299|100|2|3
21-08-05 12:21:38|TAG|111|5|1.5|10|0.25|500|388448|0:00:00.048038|100|0|3
21-08-05 12:21:39|TAG|112|5|1.5|10|0.25|500|430383|0:00:00.086084|76|0|3
21-08-05 12:21:40|TAG|113|5|1.5|10|0.25|500|1372646|0:00:01.032105|98|7|3
21-08-05 12:21:41|TAG|114|5|1.5|10|0.25|500|391917|0:00:00.051220|76|0|3
21-08-05 12:21:43|TAG|115|5|1.5|10|0.25|500|1167934|0:00:00.824448|85|0|3
21-08-05 12:21:43|TAG|116|5|1.5|10|0.25|500|528719|0:00:00.198008|99|13|3
21-08-05 12:21:44|TAG|117|5|1.5|10|0.25|500|619871|0:00:00.343132|94|1|3
21-08-05 12:21:45|TAG|118|5|1.5|10|0.25|500|434560|0:00:00.096462|98|0|3
21-08-05 12:21:46|TAG|119|5|1.5|10|0.25|500|383766|0:00:00.042433|100|2|3
21-08-05 12:21:47|TAG|120|5|1.5|10|0.25|500|658541|0:00:00.316689|91|8|3
21-08-05 12:21:48|TAG|121|5|1.5|10|0.25|500|672855|0:00:00.329913|92|5|3
21-08-05 12:21:49|TAG|122|5|1.5|10|0.25|500|1222382|0:00:00.881750|66|1|3
21-08-05 12:21:51|TAG|123|5|1.5|10|0.25|500|883389|0:00:00.536662|96|6|3
21-08-05 12:21:52|TAG|124|5|1.5|10|0.25|500|494545|0:00:00.154348|75|5|3
21-08-05 12:21:53|TAG|125|5|1.5|10|0.25|500|589819|0:00:00.251486|89|2|3
21-08-05 12:21:54|TAG|126|5|1.5|10|0.25|500|839818|0:00:00.509367|99|0|3
21-08-05 12:21:55|TAG|127|5|1.5|10|0.25|500|1037706|0:00:00.749679|98|2|3
21-08-05 12:21:56|TAG|128|5|1.5|10|0.25|500|416551|0:00:00.071740|100|0|3
21-08-05 12:21:57|TAG|129|5|1.5|10|0.25|500|581878|0:00:00.240041|95|4|3
21-08-05 12:21:58|TAG|130|5|1.5|10|0.25|500|493933|0:00:00.151354|92|3|3
21-08-05 12:21:58|TAG|131|5|1.5|10|0.25|500|478364|0:00:00.135272|98|0|3
21-08-05 12:21:59|TAG|132|5|1.5|10|0.25|500|471368|0:00:00.132695|93|0|3
21-08-05 12:22:00|TAG|133|5|1.5|10|0.25|500|577774|0:00:00.233769|100|6|3
21-08-05 12:22:01|TAG|134|5|1.5|10|0.25|500|501954|0:00:00.159067|94|5|3
21-08-05 12:22:02|TAG|135|5|1.5|10|0.25|500|653308|0:00:00.311148|100|6|3
21-08-05 12:22:03|TAG|136|5|1.5|10|0.25|500|420873|0:00:00.083123|100|0|3
21-08-05 12:22:04|TAG|137|5|1.5|10|0.25|500|365749|0:00:00.056135|98|0|3
21-08-05 12:22:04|TAG|138|5|1.5|10|0.25|500|426907|0:00:00.150970|85|6|3
21-08-05 12:22:05|TAG|139|5|1.5|10|0.25|500|527043|0:00:00.235180|95|1|3
21-08-05 12:22:06|TAG|140|5|1.5|10|0.25|500|390405|0:00:00.051756|100|0|3
21-08-05 12:22:07|TAG|141|5|1.5|10|0.25|500|480545|0:00:00.141138|100|6|3
21-08-05 12:22:08|TAG|142|5|1.5|10|0.25|500|1006043|0:00:00.666070|94|4|3
21-08-05 12:22:09|TAG|143|5|1.5|10|0.25|500|462741|0:00:00.118904|87|4|3
21-08-05 12:22:10|TAG|144|5|1.5|10|0.25|500|714930|0:00:00.372982|94|7|3
21-08-05 12:22:11|TAG|145|5|1.5|10|0.25|500|541234|0:00:00.197351|100|4|3
21-08-05 12:22:12|TAG|146|5|1.5|10|0.25|500|566459|0:00:00.224993|98|3|3
21-08-05 12:22:13|TAG|147|5|1.5|10|0.25|500|483892|0:00:00.141689|94|3|3
21-08-05 12:22:13|TAG|148|5|1.5|10|0.25|500|456185|0:00:00.113599|100|3|3
21-08-05 12:22:15|TAG|149|5|1.5|10|0.25|500|1047879|0:00:00.770222|77|10|3
21-08-05 12:22:16|TAG|150|5|1.5|10|0.25|500|430970|0:00:00.085776|100|1|3
21-08-05 12:22:16|TAG|151|5|1.5|10|0.25|500|392146|0:00:00.045401|100|0|3
21-08-05 12:22:17|TAG|152|5|1.5|10|0.25|500|440317|0:00:00.097654|94|0|3
21-08-05 12:22:18|TAG|153|5|1.5|10|0.25|500|595883|0:00:00.254322|99|1|3
21-08-05 12:22:19|TAG|154|5|1.5|10|0.25|500|609629|0:00:00.269182|91|6|3
21-08-05 12:22:20|TAG|155|5|1.5|10|0.25|500|404615|0:00:00.066386|91|0|3
21-08-05 12:22:21|TAG|156|5|1.5|10|0.25|500|655409|0:00:00.313392|100|7|3
21-08-05 12:22:22|TAG|157|5|1.5|10|0.25|500|382287|0:00:00.043301|97|1|3
21-08-05 12:22:22|TAG|158|5|1.5|10|0.25|500|382935|0:00:00.040344|100|2|3
21-08-05 12:22:23|TAG|159|5|1.5|10|0.25|500|449629|0:00:00.108520|100|0|3
21-08-05 12:22:24|TAG|160|5|1.5|10|0.25|500|317292|0:00:00.037075|100|1|3
21-08-05 12:22:24|TAG|161|5|1.5|10|0.25|500|437218|0:00:00.160059|69|0|3
21-08-05 12:22:25|TAG|162|5|1.5|10|0.25|500|369886|0:00:00.039553|80|1|3
21-08-05 12:22:26|TAG|163|5|1.5|10|0.25|500|561098|0:00:00.220814|86|3|3
21-08-05 12:22:27|TAG|164|5|1.5|10|0.25|500|385041|0:00:00.043882|99|3|3
21-08-05 12:22:28|TAG|165|5|1.5|10|0.25|500|473812|0:00:00.133481|95|3|3
21-08-05 12:22:29|TAG|166|5|1.5|10|0.25|500|907055|0:00:00.564794|100|4|3
21-08-05 12:22:30|TAG|167|5|1.5|10|0.25|500|527719|0:00:00.186185|82|6|3
21-08-05 12:22:31|TAG|168|5|1.5|10|0.25|500|471891|0:00:00.126484|98|2|3
21-08-05 12:22:32|TAG|169|5|1.5|10|0.25|500|774071|0:00:00.434033|83|0|3
21-08-05 12:22:33|TAG|170|5|1.5|10|0.25|500|442988|0:00:00.096667|100|1|3
21-08-05 12:22:34|TAG|171|5|1.5|10|0.25|500|635420|0:00:00.303334|95|2|3
21-08-05 12:22:34|TAG|172|5|1.5|10|0.25|500|376695|0:00:00.099301|100|6|3
21-08-05 12:22:35|TAG|173|5|1.5|10|0.25|500|310116|0:00:00.029940|100|1|3
21-08-05 12:22:36|TAG|174|5|1.5|10|0.25|500|392907|0:00:00.047783|84|1|3
21-08-05 12:22:37|TAG|175|5|1.5|10|0.25|500|606639|0:00:00.265710|66|1|3
21-08-05 12:22:38|TAG|176|5|1.5|10|0.25|500|610786|0:00:00.265921|100|4|3
21-08-05 12:22:38|TAG|177|5|1.5|10|0.25|500|457836|0:00:00.090368|97|1|3
21-08-05 12:22:39|TAG|178|5|1.5|10|0.25|500|409176|0:00:00.047315|100|1|3
21-08-05 12:22:40|TAG|179|5|1.5|10|0.25|500|578582|0:00:00.235987|90|10|3
21-08-05 12:22:41|TAG|180|5|1.5|10|0.25|500|607967|0:00:00.263585|100|13|3
21-08-05 12:22:42|TAG|181|5|1.5|10|0.25|500|404353|0:00:00.058709|100|4|3
21-08-05 12:22:43|TAG|182|5|1.5|10|0.25|500|444515|0:00:00.100942|100|3|3
21-08-05 12:22:43|TAG|183|5|1.5|10|0.25|500|510784|0:00:00.163284|98|10|3
21-08-05 12:22:44|TAG|184|5|1.5|10|0.25|500|507304|0:00:00.208142|100|5|3
21-08-05 12:22:45|TAG|185|5|1.5|10|0.25|500|325188|0:00:00.043026|100|1|3
21-08-05 12:22:46|TAG|186|5|1.5|10|0.25|500|438404|0:00:00.094331|90|3|3
21-08-05 12:22:47|TAG|187|5|1.5|10|0.25|500|466965|0:00:00.123471|100|4|3
21-08-05 12:22:47|TAG|188|5|1.5|10|0.25|500|481605|0:00:00.137961|82|6|3
21-08-05 12:22:48|TAG|189|5|1.5|10|0.25|500|494380|0:00:00.145758|84|2|3
21-08-05 12:22:49|TAG|190|5|1.5|10|0.25|500|403737|0:00:00.057203|95|3|3
21-08-05 12:22:50|TAG|191|5|1.5|10|0.25|500|452706|0:00:00.108942|99|1|3
21-08-05 12:22:52|TAG|192|5|1.5|10|0.25|500|1441507|0:00:01.096409|93|0|3
21-08-05 12:22:52|TAG|193|5|1.5|10|0.25|500|409123|0:00:00.068890|88|1|3
21-08-05 12:22:53|TAG|194|5|1.5|10|0.25|500|452648|0:00:00.110708|94|1|3
21-08-05 12:22:54|TAG|195|5|1.5|10|0.25|500|343140|0:00:00.054178|86|0|3
21-08-05 12:22:55|TAG|196|5|1.5|10|0.25|500|394822|0:00:00.117856|96|2|3
21-08-05 12:22:55|TAG|197|5|1.5|10|0.25|500|365578|0:00:00.064522|90|0|3
21-08-05 12:22:56|TAG|198|5|1.5|10|0.25|500|518277|0:00:00.171319|93|5|3
21-08-05 12:22:57|TAG|199|5|1.5|10|0.25|500|513109|0:00:00.169611|88|5|3
21-08-05 12:22:58|TAG|0|5|1.5|10|0.25|500|435254|0:00:00.092419|100|4|4
21-08-05 12:22:59|TAG|1|5|1.5|10|0.25|500|650752|0:00:00.307402|81|4|4
21-08-05 12:23:00|TAG|2|5|1.5|10|0.25|500|450037|0:00:00.107354|97|7|4
21-08-05 12:23:01|TAG|3|5|1.5|10|0.25|500|1238388|0:00:00.894748|99|4|4
21-08-05 12:23:02|TAG|4|5|1.5|10|0.25|500|418935|0:00:00.073137|100|2|4
21-08-05 12:23:03|TAG|5|5|1.5|10|0.25|500|496787|0:00:00.150176|91|1|4
21-08-05 12:23:04|TAG|6|5|1.5|10|0.25|500|465152|0:00:00.131029|100|3|4
21-08-05 12:23:05|TAG|7|5|1.5|10|0.25|500|607913|0:00:00.325905|97|5|4
21-08-05 12:23:05|TAG|8|5|1.5|10|0.25|500|448454|0:00:00.150184|98|8|4
21-08-05 12:23:11|TAG|9|5|1.5|10|0.25|500|5342269|0:00:05.000527|88|21|4
21-08-05 12:23:12|TAG|10|5|1.5|10|0.25|500|396705|0:00:00.056583|100|4|4
21-08-05 12:23:13|TAG|11|5|1.5|10|0.25|500|490753|0:00:00.145227|100|2|4
21-08-05 12:23:14|TAG|12|5|1.5|10|0.25|500|594591|0:00:00.253354|98|7|4
21-08-05 12:23:14|TAG|13|5|1.5|10|0.25|500|330244|0:00:00.055302|85|0|4
21-08-05 12:23:17|TAG|14|5|1.5|10|0.25|500|2756939|0:00:02.468659|97|23|4
21-08-05 12:23:18|TAG|15|5|1.5|10|0.25|500|483112|0:00:00.139126|100|7|4
21-08-05 12:23:19|TAG|16|5|1.5|10|0.25|500|597240|0:00:00.254818|93|3|4
21-08-05 12:23:22|TAG|17|5|1.5|10|0.25|500|2308391|0:00:01.963767|93|15|4
21-08-05 12:23:23|TAG|18|5|1.5|10|0.25|500|515406|0:00:00.172772|100|3|4
21-08-05 12:23:23|TAG|19|5|1.5|10|0.25|500|384969|0:00:00.039825|100|1|4
21-08-05 12:23:24|TAG|20|5|1.5|10|0.25|500|342622|0:00:00.064444|96|3|4
21-08-05 12:23:27|TAG|21|5|1.5|10|0.25|500|2871467|0:00:02.580620|100|14|4
21-08-05 12:23:28|TAG|22|5|1.5|10|0.25|500|421968|0:00:00.079320|92|3|4
21-08-05 12:23:31|TAG|23|5|1.5|10|0.25|500|2197282|0:00:01.848694|88|6|4
21-08-05 12:23:32|TAG|24|5|1.5|10|0.25|500|1054465|0:00:00.709954|73|0|4
21-08-05 12:23:34|TAG|25|5|1.5|10|0.25|500|1151308|0:00:00.808332|100|10|4
21-08-05 12:23:34|TAG|26|5|1.5|10|0.25|500|313218|0:00:00.038055|76|1|4
21-08-05 12:23:35|TAG|27|5|1.5|10|0.25|500|428241|0:00:00.150996|96|8|4
21-08-05 12:23:36|TAG|28|5|1.5|10|0.25|500|446645|0:00:00.114697|98|0|4
21-08-05 12:23:36|TAG|29|5|1.5|10|0.25|500|404849|0:00:00.060658|100|4|4
21-08-05 12:23:37|TAG|30|5|1.5|10|0.25|500|455846|0:00:00.114611|90|0|4
21-08-05 12:23:38|TAG|31|5|1.5|10|0.25|500|438455|0:00:00.095542|100|4|4
21-08-05 12:23:39|TAG|32|5|1.5|10|0.25|500|380407|0:00:00.038042|100|5|4
21-08-05 12:23:40|TAG|33|5|1.5|10|0.25|500|1039867|0:00:00.696270|100|10|4
21-08-05 12:23:41|TAG|34|5|1.5|10|0.25|500|428556|0:00:00.084588|100|2|4
21-08-05 12:23:42|TAG|35|5|1.5|10|0.25|500|403507|0:00:00.061528|100|1|4
21-08-05 12:23:42|TAG|36|5|1.5|10|0.25|500|381984|0:00:00.037940|84|4|4
21-08-05 12:23:44|TAG|37|5|1.5|10|0.25|500|743090|0:00:00.397231|93|8|4
21-08-05 12:23:44|TAG|38|5|1.5|10|0.25|500|379645|0:00:00.102129|77|6|4
21-08-05 12:23:45|TAG|39|5|1.5|10|0.25|500|513415|0:00:00.231050|94|4|4
21-08-05 12:23:46|TAG|40|5|1.5|10|0.25|500|539561|0:00:00.194439|100|4|4
21-08-05 12:23:47|TAG|41|5|1.5|10|0.25|500|514045|0:00:00.169563|96|8|4
21-08-05 12:23:48|TAG|42|5|1.5|10|0.25|500|762612|0:00:00.418739|100|5|4
21-08-05 12:23:49|TAG|43|5|1.5|10|0.25|500|410882|0:00:00.067783|100|0|4
21-08-05 12:23:50|TAG|44|5|1.5|10|0.25|500|1327388|0:00:00.982394|95|13|4
21-08-05 12:23:51|TAG|45|5|1.5|10|0.25|500|437488|0:00:00.096539|96|5|4
21-08-05 12:23:52|TAG|46|5|1.5|10|0.25|500|494246|0:00:00.150257|100|5|4
21-08-05 12:23:53|TAG|47|5|1.5|10|0.25|500|403328|0:00:00.058638|100|3|4
21-08-05 12:23:54|TAG|48|5|1.5|10|0.25|500|493351|0:00:00.145879|100|0|4
21-08-05 12:23:54|TAG|49|5|1.5|10|0.25|500|339080|0:00:00.057845|90|4|4
21-08-05 12:23:55|TAG|50|5|1.5|10|0.25|500|402449|0:00:00.127148|100|1|4
21-08-05 12:23:56|TAG|51|5|1.5|10|0.25|500|436504|0:00:00.096002|100|4|4
21-08-05 12:23:56|TAG|52|5|1.5|10|0.25|500|395139|0:00:00.050868|100|4|4
21-08-05 12:23:58|TAG|53|5|1.5|10|0.25|500|1439243|0:00:01.095645|96|6|4
21-08-05 12:23:59|TAG|54|5|1.5|10|0.25|500|652546|0:00:00.309886|84|7|4
21-08-05 12:24:00|TAG|55|5|1.5|10|0.25|500|509243|0:00:00.162409|82|3|4
21-08-05 12:24:01|TAG|56|5|1.5|10|0.25|500|379701|0:00:00.038321|97|5|4
21-08-05 12:24:02|TAG|57|5|1.5|10|0.25|500|444413|0:00:00.098063|88|4|4
21-08-05 12:24:04|TAG|58|5|1.5|10|0.25|500|1510659|0:00:01.169716|99|16|4
21-08-05 12:24:04|TAG|59|5|1.5|10|0.25|500|378036|0:00:00.102844|98|3|4
21-08-05 12:24:05|TAG|60|5|1.5|10|0.25|500|549485|0:00:00.271716|89|2|4
21-08-05 12:24:06|TAG|61|5|1.5|10|0.25|500|410805|0:00:00.069211|100|2|4
21-08-05 12:24:07|TAG|62|5|1.5|10|0.25|500|503139|0:00:00.155888|81|4|4
21-08-05 12:24:08|TAG|63|5|1.5|10|0.25|500|512214|0:00:00.168758|94|0|4
21-08-05 12:24:08|TAG|64|5|1.5|10|0.25|500|417672|0:00:00.074521|93|1|4
21-08-05 12:24:10|TAG|65|5|1.5|10|0.25|500|900683|0:00:00.553171|73|0|4
21-08-05 12:24:10|TAG|66|5|1.5|10|0.25|500|396276|0:00:00.054339|100|1|4
21-08-05 12:24:11|TAG|67|5|1.5|10|0.25|500|405420|0:00:00.060238|94|5|4
21-08-05 12:24:12|TAG|68|5|1.5|10|0.25|500|608654|0:00:00.263916|99|6|4
21-08-05 12:24:13|TAG|69|5|1.5|10|0.25|500|831509|0:00:00.484826|93|8|4
21-08-05 12:24:15|TAG|70|5|1.5|10|0.25|500|1089898|0:00:00.777022|39|3|4
21-08-05 12:24:15|TAG|71|5|1.5|10|0.25|500|305304|0:00:00.031518|100|1|4
21-08-05 12:24:16|TAG|72|5|1.5|10|0.25|500|413259|0:00:00.063477|99|4|4
21-08-05 12:24:17|TAG|73|5|1.5|10|0.25|500|620662|0:00:00.277208|95|6|4
21-08-05 12:24:18|TAG|74|5|1.5|10|0.25|500|591106|0:00:00.246685|87|4|4
21-08-05 12:24:20|TAG|75|5|1.5|10|0.25|500|1652178|0:00:01.309373|99|15|4
21-08-05 12:24:21|TAG|76|5|1.5|10|0.25|500|387088|0:00:00.041309|76|1|4
21-08-05 12:24:22|TAG|77|5|1.5|10|0.25|500|1250202|0:00:00.906827|93|15|4
21-08-05 12:24:24|TAG|78|5|1.5|10|0.25|500|1362732|0:00:01.026686|98|15|4
21-08-05 12:24:25|TAG|79|5|1.5|10|0.25|500|349310|0:00:00.069179|100|3|4
21-08-05 12:24:30|TAG|80|5|1.5|10|0.25|500|5346588|0:00:05.056121|100|16|4
21-08-05 12:24:32|TAG|81|5|1.5|10|0.25|500|861416|0:00:00.515327|95|4|4
21-08-05 12:24:33|TAG|82|5|1.5|10|0.25|500|646832|0:00:00.302883|84|1|4
21-08-05 12:24:34|TAG|83|5|1.5|10|0.25|500|624485|0:00:00.274698|100|1|4
21-08-05 12:24:34|TAG|84|5|1.5|10|0.25|500|322484|0:00:00.039808|100|1|4
21-08-05 12:24:35|TAG|85|5|1.5|10|0.25|500|528178|0:00:00.252925|98|6|4
21-08-05 12:24:36|TAG|86|5|1.5|10|0.25|500|971507|0:00:00.622811|87|8|4
21-08-05 12:24:38|TAG|87|5|1.5|10|0.25|500|715025|0:00:00.369882|97|20|4
21-08-05 12:24:38|TAG|88|5|1.5|10|0.25|500|505380|0:00:00.157049|92|0|4
21-08-05 12:24:39|TAG|89|5|1.5|10|0.25|500|427249|0:00:00.079545|97|2|4
21-08-05 12:24:40|TAG|90|5|1.5|10|0.25|500|406835|0:00:00.064670|100|2|4
21-08-05 12:24:41|TAG|91|5|1.5|10|0.25|500|1086861|0:00:00.742597|90|4|4
21-08-05 12:24:43|TAG|92|5|1.5|10|0.25|500|748469|0:00:00.407468|87|11|4
21-08-05 12:24:43|TAG|93|5|1.5|10|0.25|500|450488|0:00:00.106700|97|4|4
21-08-05 12:24:44|TAG|94|5|1.5|10|0.25|500|548565|0:00:00.226654|92|7|4
21-08-05 12:24:45|TAG|95|5|1.5|10|0.25|500|380149|0:00:00.097965|98|4|4
21-08-05 12:24:48|TAG|96|5|1.5|10|0.25|500|2321280|0:00:02.032468|98|20|4
21-08-05 12:24:48|TAG|97|5|1.5|10|0.25|500|426009|0:00:00.080930|82|10|4
21-08-05 12:24:49|TAG|98|5|1.5|10|0.25|500|378609|0:00:00.034651|89|0|4
21-08-05 12:24:50|TAG|99|5|1.5|10|0.25|500|533804|0:00:00.187157|100|4|4
21-08-05 12:24:51|TAG|100|5|1.5|10|0.25|500|386828|0:00:00.040589|100|3|4
21-08-05 12:24:55|TAG|101|5|1.5|10|0.25|500|4308555|0:00:03.972388|80|16|4
21-08-05 12:24:56|TAG|102|5|1.5|10|0.25|500|383959|0:00:00.039287|96|0|4
21-08-05 12:24:57|TAG|103|5|1.5|10|0.25|500|416883|0:00:00.066913|99|4|4
21-08-05 12:24:58|TAG|104|5|1.5|10|0.25|500|853519|0:00:00.512141|97|12|4
21-08-05 12:25:00|TAG|105|5|1.5|10|0.25|500|1744439|0:00:01.401728|87|5|4
21-08-05 12:25:01|TAG|106|5|1.5|10|0.25|500|426642|0:00:00.083850|100|2|4
21-08-05 12:25:02|TAG|107|5|1.5|10|0.25|500|393881|0:00:00.043444|100|1|4
21-08-05 12:25:03|TAG|108|5|1.5|10|0.25|500|671885|0:00:00.328020|93|6|4
21-08-05 12:25:04|TAG|109|5|1.5|10|0.25|500|610200|0:00:00.258764|99|6|4
21-08-05 12:25:05|TAG|110|5|1.5|10|0.25|500|458343|0:00:00.173271|96|3|4
21-08-05 12:25:05|TAG|111|5|1.5|10|0.25|500|331727|0:00:00.041698|100|0|4
21-08-05 12:25:06|TAG|112|5|1.5|10|0.25|500|396596|0:00:00.092073|100|2|4
21-08-05 12:25:08|TAG|113|5|1.5|10|0.25|500|1174640|0:00:00.829749|98|7|4
21-08-05 12:25:08|TAG|114|5|1.5|10|0.25|500|457092|0:00:00.114335|76|1|4
21-08-05 12:25:10|TAG|115|5|1.5|10|0.25|500|1168641|0:00:00.819975|85|0|4
21-08-05 12:25:11|TAG|116|5|1.5|10|0.25|500|579619|0:00:00.237335|99|13|4
21-08-05 12:25:12|TAG|117|5|1.5|10|0.25|500|863664|0:00:00.519381|95|4|4
21-08-05 12:25:13|TAG|118|5|1.5|10|0.25|500|442222|0:00:00.099419|100|1|4
21-08-05 12:25:14|TAG|119|5|1.5|10|0.25|500|385642|0:00:00.043432|100|2|4
21-08-05 12:25:14|TAG|120|5|1.5|10|0.25|500|546132|0:00:00.253635|100|10|4
21-08-05 12:25:16|TAG|121|5|1.5|10|0.25|500|1079426|0:00:00.777119|93|18|4
21-08-05 12:25:18|TAG|122|5|1.5|10|0.25|500|1299967|0:00:00.955940|100|1|4
21-08-05 12:25:20|TAG|123|5|1.5|10|0.25|500|1731684|0:00:01.387080|94|14|4
21-08-05 12:25:21|TAG|124|5|1.5|10|0.25|500|670778|0:00:00.326154|99|9|4
21-08-05 12:25:22|TAG|125|5|1.5|10|0.25|500|672448|0:00:00.329595|100|6|4
21-08-05 12:25:23|TAG|126|5|1.5|10|0.25|500|888656|0:00:00.534794|99|0|4
21-08-05 12:25:24|TAG|127|5|1.5|10|0.25|500|1085358|0:00:00.750990|98|2|4
21-08-05 12:25:25|TAG|128|5|1.5|10|0.25|500|357562|0:00:00.064630|100|0|4
21-08-05 12:25:26|TAG|129|5|1.5|10|0.25|500|500869|0:00:00.194011|100|5|4
21-08-05 12:25:27|TAG|130|5|1.5|10|0.25|500|492265|0:00:00.147633|92|3|4
21-08-05 12:25:28|TAG|131|5|1.5|10|0.25|500|501334|0:00:00.157882|99|2|4
21-08-05 12:25:29|TAG|132|5|1.5|10|0.25|500|485694|0:00:00.144132|93|0|4
21-08-05 12:25:30|TAG|133|5|1.5|10|0.25|500|648413|0:00:00.307927|100|11|4
21-08-05 12:25:30|TAG|134|5|1.5|10|0.25|500|516806|0:00:00.162151|94|5|4
21-08-05 12:25:31|TAG|135|5|1.5|10|0.25|500|648745|0:00:00.310140|100|6|4
21-08-05 12:25:32|TAG|136|5|1.5|10|0.25|500|431868|0:00:00.088483|100|0|4
21-08-05 12:25:33|TAG|137|5|1.5|10|0.25|500|415243|0:00:00.069642|98|0|4
21-08-05 12:25:34|TAG|138|5|1.5|10|0.25|500|539288|0:00:00.190717|85|6|4
21-08-05 12:25:35|TAG|139|5|1.5|10|0.25|500|538545|0:00:00.255006|99|5|4
21-08-05 12:25:35|TAG|140|5|1.5|10|0.25|500|340197|0:00:00.045052|100|0|4
21-08-05 12:25:36|TAG|141|5|1.5|10|0.25|500|454760|0:00:00.140908|100|6|4
21-08-05 12:25:38|TAG|142|5|1.5|10|0.25|500|1181736|0:00:00.833844|94|5|4
21-08-05 12:25:39|TAG|143|5|1.5|10|0.25|500|468726|0:00:00.121327|87|4|4
21-08-05 12:25:40|TAG|144|5|1.5|10|0.25|500|1108517|0:00:00.764092|95|14|4
21-08-05 12:25:41|TAG|145|5|1.5|10|0.25|500|564811|0:00:00.215001|100|4|4
21-08-05 12:25:42|TAG|146|5|1.5|10|0.25|500|685568|0:00:00.340272|98|4|4
21-08-05 12:25:43|TAG|147|5|1.5|10|0.25|500|484779|0:00:00.142202|93|7|4
21-08-05 12:25:44|TAG|148|5|1.5|10|0.25|500|465340|0:00:00.115993|100|3|4
21-08-05 12:25:47|TAG|149|5|1.5|10|0.25|500|2579350|0:00:02.275955|24|0|4
21-08-05 12:25:47|TAG|150|5|1.5|10|0.25|500|429793|0:00:00.086253|100|1|4
21-08-05 12:25:48|TAG|151|5|1.5|10|0.25|500|389110|0:00:00.047598|100|2|4
21-08-05 12:25:49|TAG|152|5|1.5|10|0.25|500|435262|0:00:00.095120|94|3|4
21-08-05 12:25:50|TAG|153|5|1.5|10|0.25|500|642520|0:00:00.297785|99|1|4
21-08-05 12:25:51|TAG|154|5|1.5|10|0.25|500|569058|0:00:00.223291|91|9|4
21-08-05 12:25:52|TAG|155|5|1.5|10|0.25|500|418070|0:00:00.067536|91|0|4
21-08-05 12:25:53|TAG|156|5|1.5|10|0.25|500|728299|0:00:00.380846|100|6|4
21-08-05 12:25:54|TAG|157|5|1.5|10|0.25|500|387367|0:00:00.045211|97|1|4
21-08-05 12:25:54|TAG|158|5|1.5|10|0.25|500|393911|0:00:00.053244|100|2|4
21-08-05 12:25:55|TAG|159|5|1.5|10|0.25|500|400749|0:00:00.092457|100|0|4
21-08-05 12:25:56|TAG|160|5|1.5|10|0.25|500|342884|0:00:00.043422|100|1|4
21-08-05 12:25:57|TAG|161|5|1.5|10|0.25|500|872320|0:00:00.553174|64|0|4
21-08-05 12:25:58|TAG|162|5|1.5|10|0.25|500|391178|0:00:00.042286|80|1|4
21-08-05 12:25:59|TAG|163|5|1.5|10|0.25|500|582590|0:00:00.236736|86|3|4
21-08-05 12:25:59|TAG|164|5|1.5|10|0.25|500|396648|0:00:00.045239|99|3|4
21-08-05 12:26:00|TAG|165|5|1.5|10|0.25|500|479943|0:00:00.130566|95|3|4
21-08-05 12:26:01|TAG|166|5|1.5|10|0.25|500|892865|0:00:00.540886|100|4|4
21-08-05 12:26:02|TAG|167|5|1.5|10|0.25|500|510177|0:00:00.164155|95|8|4
21-08-05 12:26:03|TAG|168|5|1.5|10|0.25|500|477539|0:00:00.132193|98|4|4
21-08-05 12:26:06|TAG|169|5|1.5|10|0.25|500|2082744|0:00:01.742252|24|0|4
21-08-05 12:26:06|TAG|170|5|1.5|10|0.25|500|421258|0:00:00.095172|100|1|4
21-08-05 12:26:08|TAG|171|5|1.5|10|0.25|500|807153|0:00:00.458513|95|7|4
21-08-05 12:26:08|TAG|172|5|1.5|10|0.25|500|469745|0:00:00.123489|100|6|4
21-08-05 12:26:09|TAG|173|5|1.5|10|0.25|500|380732|0:00:00.037476|100|1|4
21-08-05 12:26:10|TAG|174|5|1.5|10|0.25|500|393275|0:00:00.048743|84|1|4
21-08-05 12:26:11|TAG|175|5|1.5|10|0.25|500|846442|0:00:00.499866|100|14|4
21-08-05 12:26:12|TAG|176|5|1.5|10|0.25|500|608128|0:00:00.264341|100|4|4
21-08-05 12:26:13|TAG|177|5|1.5|10|0.25|500|439221|0:00:00.089322|97|1|4
21-08-05 12:26:14|TAG|178|5|1.5|10|0.25|500|402562|0:00:00.049258|100|1|4
21-08-05 12:26:15|TAG|179|5|1.5|10|0.25|500|723946|0:00:00.391567|96|10|4
21-08-05 12:26:15|TAG|180|5|1.5|10|0.25|500|518297|0:00:00.227344|100|13|4
21-08-05 12:26:16|TAG|181|5|1.5|10|0.25|500|383059|0:00:00.076798|100|5|4
21-08-05 12:26:17|TAG|182|5|1.5|10|0.25|500|444842|0:00:00.099062|100|3|4
21-08-05 12:26:18|TAG|183|5|1.5|10|0.25|500|503623|0:00:00.159785|98|10|4
21-08-05 12:26:19|TAG|184|5|1.5|10|0.25|500|877496|0:00:00.531748|100|7|4
21-08-05 12:26:20|TAG|185|5|1.5|10|0.25|500|394209|0:00:00.052069|100|1|4
21-08-05 12:26:21|TAG|186|5|1.5|10|0.25|500|455243|0:00:00.113701|90|4|4
21-08-05 12:26:22|TAG|187|5|1.5|10|0.25|500|471027|0:00:00.124650|100|4|4
21-08-05 12:26:22|TAG|188|5|1.5|10|0.25|500|490197|0:00:00.142866|82|6|4
21-08-05 12:26:23|TAG|189|5|1.5|10|0.25|500|484770|0:00:00.144591|84|2|4
21-08-05 12:26:24|TAG|190|5|1.5|10|0.25|500|401857|0:00:00.060338|95|3|4
21-08-05 12:26:25|TAG|191|5|1.5|10|0.25|500|383995|0:00:00.094782|99|1|4
21-08-05 12:26:26|TAG|192|5|1.5|10|0.25|500|1292865|0:00:00.992200|93|0|4
21-08-05 12:26:27|TAG|193|5|1.5|10|0.25|500|414461|0:00:00.069647|88|1|4
21-08-05 12:26:28|TAG|194|5|1.5|10|0.25|500|460928|0:00:00.116222|94|2|4
21-08-05 12:26:29|TAG|195|5|1.5|10|0.25|500|411344|0:00:00.067070|86|0|4
21-08-05 12:26:30|TAG|196|5|1.5|10|0.25|500|532532|0:00:00.187661|96|9|4
21-08-05 12:26:30|TAG|197|5|1.5|10|0.25|500|415735|0:00:00.066859|90|0|4
21-08-05 12:26:31|TAG|198|5|1.5|10|0.25|500|528314|0:00:00.176479|93|5|4
21-08-05 12:26:32|TAG|199|5|1.5|10|0.25|500|519026|0:00:00.175402|88|5|4
21-08-05 12:26:33|TAG|0|5|1.5|10|0.25|500|444222|0:00:00.094158|100|4|5
21-08-05 12:26:34|TAG|1|5|1.5|10|0.25|500|1123655|0:00:00.788989|86|12|5
21-08-05 12:26:35|TAG|2|5|1.5|10|0.25|500|533817|0:00:00.247856|97|8|5
21-08-05 12:26:41|TAG|3|5|1.5|10|0.25|500|5606115|0:00:05.287342|77|3|5
21-08-05 12:26:42|TAG|4|5|1.5|10|0.25|500|425841|0:00:00.073074|100|2|5
21-08-05 12:26:43|TAG|5|5|1.5|10|0.25|500|501605|0:00:00.147806|91|1|5
21-08-05 12:26:44|TAG|6|5|1.5|10|0.25|500|529422|0:00:00.182737|100|3|5
21-08-05 12:26:45|TAG|7|5|1.5|10|0.25|500|655447|0:00:00.354776|97|5|5
21-08-05 12:26:45|TAG|8|5|1.5|10|0.25|500|404012|0:00:00.128228|98|8|5
21-08-05 12:26:53|TAG|9|5|1.5|10|0.25|500|7051416|0:00:06.764048|88|24|5
21-08-05 12:26:54|TAG|10|5|1.5|10|0.25|500|401830|0:00:00.058473|100|4|5
21-08-05 12:26:54|TAG|11|5|1.5|10|0.25|500|459073|0:00:00.123453|100|2|5
21-08-05 12:26:55|TAG|12|5|1.5|10|0.25|500|520571|0:00:00.219653|98|7|5
21-08-05 12:26:56|TAG|13|5|1.5|10|0.25|500|350627|0:00:00.058452|85|0|5
21-08-05 12:27:03|TAG|14|5|1.5|10|0.25|500|6265196|0:00:05.915156|91|26|5
21-08-05 12:27:04|TAG|15|5|1.5|10|0.25|500|478891|0:00:00.133955|100|7|5
21-08-05 12:27:04|TAG|16|5|1.5|10|0.25|500|577133|0:00:00.244189|93|3|5
21-08-05 12:27:07|TAG|17|5|1.5|10|0.25|500|2314157|0:00:02.013857|93|15|5
21-08-05 12:27:08|TAG|18|5|1.5|10|0.25|500|557863|0:00:00.215320|100|5|5
21-08-05 12:27:09|TAG|19|5|1.5|10|0.25|500|384463|0:00:00.041216|100|1|5
21-08-05 12:27:10|TAG|20|5|1.5|10|0.25|500|427590|0:00:00.080236|96|3|5
21-08-05 12:27:14|TAG|21|5|1.5|10|0.25|500|3965076|0:00:03.612649|100|16|5
21-08-05 12:27:15|TAG|22|5|1.5|10|0.25|500|353277|0:00:00.065275|92|3|5
21-08-05 12:27:18|TAG|23|5|1.5|10|0.25|500|2511044|0:00:02.197612|98|14|5
21-08-05 12:27:19|TAG|24|5|1.5|10|0.25|500|1476665|0:00:01.130036|93|5|5
21-08-05 12:27:21|TAG|25|5|1.5|10|0.25|500|1483699|0:00:01.137970|100|11|5
21-08-05 12:27:22|TAG|26|5|1.5|10|0.25|500|390468|0:00:00.047191|76|1|5
21-08-05 12:27:23|TAG|27|5|1.5|10|0.25|500|522349|0:00:00.178621|96|8|5
21-08-05 12:27:24|TAG|28|5|1.5|10|0.25|500|463141|0:00:00.114880|98|0|5
21-08-05 12:27:24|TAG|29|5|1.5|10|0.25|500|407258|0:00:00.065182|100|5|5
21-08-05 12:27:25|TAG|30|5|1.5|10|0.25|500|375779|0:00:00.097519|90|0|5
21-08-05 12:27:26|TAG|31|5|1.5|10|0.25|500|371635|0:00:00.089668|100|4|5
21-08-05 12:27:26|TAG|32|5|1.5|10|0.25|500|339695|0:00:00.033708|100|5|5
21-08-05 12:27:28|TAG|33|5|1.5|10|0.25|500|1186023|0:00:00.838682|100|10|5
21-08-05 12:27:29|TAG|34|5|1.5|10|0.25|500|427872|0:00:00.085077|100|2|5
21-08-05 12:27:30|TAG|35|5|1.5|10|0.25|500|416143|0:00:00.065736|100|1|5
21-08-05 12:27:30|TAG|36|5|1.5|10|0.25|500|382970|0:00:00.038468|84|4|5
21-08-05 12:27:31|TAG|37|5|1.5|10|0.25|500|767432|0:00:00.424466|93|8|5
21-08-05 12:27:32|TAG|38|5|1.5|10|0.25|500|476495|0:00:00.128667|77|6|5
21-08-05 12:27:34|TAG|39|5|1.5|10|0.25|500|987177|0:00:00.644483|94|11|5
21-08-05 12:27:34|TAG|40|5|1.5|10|0.25|500|524660|0:00:00.186940|100|4|5
21-08-05 12:27:35|TAG|41|5|1.5|10|0.25|500|418763|0:00:00.146365|96|8|5
21-08-05 12:27:36|TAG|42|5|1.5|10|0.25|500|651782|0:00:00.356487|100|7|5
21-08-05 12:27:37|TAG|43|5|1.5|10|0.25|500|423846|0:00:00.068349|100|0|5
21-08-05 12:27:39|TAG|44|5|1.5|10|0.25|500|1914569|0:00:01.565361|95|14|5
21-08-05 12:27:40|TAG|45|5|1.5|10|0.25|500|437479|0:00:00.098157|96|5|5
21-08-05 12:27:41|TAG|46|5|1.5|10|0.25|500|489846|0:00:00.149548|100|5|5
21-08-05 12:27:42|TAG|47|5|1.5|10|0.25|500|398309|0:00:00.059281|100|3|5
21-08-05 12:27:42|TAG|48|5|1.5|10|0.25|500|486568|0:00:00.140979|100|0|5
21-08-05 12:27:43|TAG|49|5|1.5|10|0.25|500|419926|0:00:00.075504|90|4|5
21-08-05 12:27:44|TAG|50|5|1.5|10|0.25|500|493918|0:00:00.153091|100|1|5
21-08-05 12:27:45|TAG|51|5|1.5|10|0.25|500|371271|0:00:00.079599|100|4|5
21-08-05 12:27:45|TAG|52|5|1.5|10|0.25|500|323524|0:00:00.041794|100|4|5
21-08-05 12:27:47|TAG|53|5|1.5|10|0.25|500|1035214|0:00:00.752778|96|6|5
21-08-05 12:27:48|TAG|54|5|1.5|10|0.25|500|671096|0:00:00.310531|84|7|5
21-08-05 12:27:49|TAG|55|5|1.5|10|0.25|500|524617|0:00:00.167152|82|3|5
21-08-05 12:27:49|TAG|56|5|1.5|10|0.25|500|389652|0:00:00.039547|97|5|5
21-08-05 12:27:50|TAG|57|5|1.5|10|0.25|500|449612|0:00:00.101555|88|4|5
21-08-05 12:27:52|TAG|58|5|1.5|10|0.25|500|1595113|0:00:01.248321|99|16|5
21-08-05 12:27:53|TAG|59|5|1.5|10|0.25|500|478534|0:00:00.128847|98|3|5
21-08-05 12:27:55|TAG|60|5|1.5|10|0.25|500|1476519|0:00:01.143166|90|10|5
21-08-05 12:27:56|TAG|61|5|1.5|10|0.25|500|344269|0:00:00.056772|100|2|5
21-08-05 12:27:56|TAG|62|5|1.5|10|0.25|500|407565|0:00:00.129995|81|4|5
21-08-05 12:27:57|TAG|63|5|1.5|10|0.25|500|508056|0:00:00.166593|94|4|5
21-08-05 12:27:58|TAG|64|5|1.5|10|0.25|500|409326|0:00:00.073285|93|1|5
21-08-05 12:27:59|TAG|65|5|1.5|10|0.25|500|1091687|0:00:00.745600|97|7|5
21-08-05 12:28:00|TAG|66|5|1.5|10|0.25|500|399137|0:00:00.055907|100|1|5
21-08-05 12:28:01|TAG|67|5|1.5|10|0.25|500|400124|0:00:00.060147|94|5|5
21-08-05 12:28:02|TAG|68|5|1.5|10|0.25|500|595465|0:00:00.252900|99|6|5
21-08-05 12:28:03|TAG|69|5|1.5|10|0.25|500|807341|0:00:00.461905|93|8|5
21-08-05 12:28:06|TAG|70|5|1.5|10|0.25|500|2440171|0:00:02.102453|47|3|5
21-08-05 12:28:06|TAG|71|5|1.5|10|0.25|500|314005|0:00:00.033517|100|1|5
21-08-05 12:28:07|TAG|72|5|1.5|10|0.25|500|409826|0:00:00.064186|99|4|5
21-08-05 12:28:08|TAG|73|5|1.5|10|0.25|500|612982|0:00:00.272560|95|6|5
21-08-05 12:28:09|TAG|74|5|1.5|10|0.25|500|748905|0:00:00.407718|89|6|5
21-08-05 12:28:12|TAG|75|5|1.5|10|0.25|500|2168609|0:00:01.826862|99|16|5
21-08-05 12:28:13|TAG|76|5|1.5|10|0.25|500|383852|0:00:00.041195|76|1|5
21-08-05 12:28:14|TAG|77|5|1.5|10|0.25|500|1396179|0:00:01.046011|93|14|5
21-08-05 12:28:16|TAG|78|5|1.5|10|0.25|500|1218457|0:00:00.937191|98|16|5
21-08-05 12:28:17|TAG|79|5|1.5|10|0.25|500|404048|0:00:00.104134|100|6|5
21-08-05 12:28:27|TAG|80|5|1.5|10|0.25|500|10131434|0:00:09.785321|100|21|5
21-08-05 12:28:29|TAG|81|5|1.5|10|0.25|500|872521|0:00:00.522498|95|4|5
21-08-05 12:28:30|TAG|82|5|1.5|10|0.25|500|937385|0:00:00.596366|99|9|5
21-08-05 12:28:31|TAG|83|5|1.5|10|0.25|500|675534|0:00:00.328351|98|4|5
21-08-05 12:28:32|TAG|84|5|1.5|10|0.25|500|411472|0:00:00.049458|100|1|5
21-08-05 12:28:33|TAG|85|5|1.5|10|0.25|500|641670|0:00:00.296328|98|6|5
21-08-05 12:28:35|TAG|86|5|1.5|10|0.25|500|1558579|0:00:01.222441|87|15|5
21-08-05 12:28:36|TAG|87|5|1.5|10|0.25|500|652532|0:00:00.343458|97|20|5
21-08-05 12:28:36|TAG|88|5|1.5|10|0.25|500|407339|0:00:00.130429|92|5|5
21-08-05 12:28:37|TAG|89|5|1.5|10|0.25|500|422191|0:00:00.079853|97|2|5
21-08-05 12:28:38|TAG|90|5|1.5|10|0.25|500|408927|0:00:00.064801|100|2|5
21-08-05 12:28:39|TAG|91|5|1.5|10|0.25|500|984844|0:00:00.638783|100|5|5
21-08-05 12:28:40|TAG|92|5|1.5|10|0.25|500|754688|0:00:00.412179|87|11|5
21-08-05 12:28:41|TAG|93|5|1.5|10|0.25|500|528331|0:00:00.183273|97|10|5
21-08-05 12:28:42|TAG|94|5|1.5|10|0.25|500|621829|0:00:00.279234|92|7|5
21-08-05 12:28:43|TAG|95|5|1.5|10|0.25|500|589032|0:00:00.244862|98|6|5
21-08-05 12:28:46|TAG|96|5|1.5|10|0.25|500|2766108|0:00:02.422718|97|21|5
21-08-05 12:28:47|TAG|97|5|1.5|10|0.25|500|426016|0:00:00.082393|82|10|5
21-08-05 12:28:48|TAG|98|5|1.5|10|0.25|500|393607|0:00:00.034158|89|0|5
21-08-05 12:28:49|TAG|99|5|1.5|10|0.25|500|531786|0:00:00.180007|100|4|5
21-08-05 12:28:50|TAG|100|5|1.5|10|0.25|500|384019|0:00:00.039794|100|3|5
21-08-05 12:28:56|TAG|101|5|1.5|10|0.25|500|6025665|0:00:05.685216|80|16|5
21-08-05 12:28:57|TAG|102|5|1.5|10|0.25|500|328256|0:00:00.033671|96|0|5
21-08-05 12:28:57|TAG|103|5|1.5|10|0.25|500|409052|0:00:00.066052|99|4|5
21-08-05 12:28:59|TAG|104|5|1.5|10|0.25|500|1054920|0:00:00.710382|97|12|5
21-08-05 12:29:01|TAG|105|5|1.5|10|0.25|500|1771289|0:00:01.424358|98|8|5
21-08-05 12:29:02|TAG|106|5|1.5|10|0.25|500|427235|0:00:00.084741|100|2|5
21-08-05 12:29:02|TAG|107|5|1.5|10|0.25|500|400860|0:00:00.046105|100|1|5
21-08-05 12:29:04|TAG|108|5|1.5|10|0.25|500|850126|0:00:00.498901|93|7|5
21-08-05 12:29:05|TAG|109|5|1.5|10|0.25|500|626658|0:00:00.270817|99|6|5
21-08-05 12:29:05|TAG|110|5|1.5|10|0.25|500|468448|0:00:00.173085|96|3|5
21-08-05 12:29:06|TAG|111|5|1.5|10|0.25|500|341186|0:00:00.045425|100|0|5
21-08-05 12:29:07|TAG|112|5|1.5|10|0.25|500|387877|0:00:00.085401|100|2|5
21-08-05 12:29:08|TAG|113|5|1.5|10|0.25|500|1217410|0:00:00.863587|98|7|5
21-08-05 12:29:09|TAG|114|5|1.5|10|0.25|500|460883|0:00:00.117512|76|1|5
21-08-05 12:29:11|TAG|115|5|1.5|10|0.25|500|1156020|0:00:00.813146|85|0|5
21-08-05 12:29:12|TAG|116|5|1.5|10|0.25|500|583928|0:00:00.237693|99|13|5
21-08-05 12:29:13|TAG|117|5|1.5|10|0.25|500|1327676|0:00:00.988168|95|8|5
21-08-05 12:29:14|TAG|118|5|1.5|10|0.25|500|440190|0:00:00.097144|100|1|5
21-08-05 12:29:15|TAG|119|5|1.5|10|0.25|500|346528|0:00:00.035977|100|2|5
21-08-05 12:29:16|TAG|120|5|1.5|10|0.25|500|549435|0:00:00.263910|100|10|5
21-08-05 12:29:17|TAG|121|5|1.5|10|0.25|500|1251691|0:00:00.961628|93|18|5
21-08-05 12:29:21|TAG|122|5|1.5|10|0.25|500|3291787|0:00:02.946002|98|10|5
21-08-05 12:29:24|TAG|123|5|1.5|10|0.25|500|3072506|0:00:02.725831|97|18|5
21-08-05 12:29:25|TAG|124|5|1.5|10|0.25|500|585668|0:00:00.298423|99|9|5
21-08-05 12:29:26|TAG|125|5|1.5|10|0.25|500|565672|0:00:00.275247|100|6|5
21-08-05 12:29:28|TAG|126|5|1.5|10|0.25|500|1401378|0:00:01.096379|89|7|5
21-08-05 12:29:30|TAG|127|5|1.5|10|0.25|500|1213367|0:00:00.863824|98|2|5
21-08-05 12:29:30|TAG|128|5|1.5|10|0.25|500|418122|0:00:00.077410|100|0|5
21-08-05 12:29:31|TAG|129|5|1.5|10|0.25|500|550542|0:00:00.205772|100|5|5
21-08-05 12:29:32|TAG|130|5|1.5|10|0.25|500|493032|0:00:00.146208|92|3|5
21-08-05 12:29:33|TAG|131|5|1.5|10|0.25|500|502844|0:00:00.158579|99|2|5
21-08-05 12:29:34|TAG|132|5|1.5|10|0.25|500|478010|0:00:00.133219|93|3|5
21-08-05 12:29:35|TAG|133|5|1.5|10|0.25|500|642524|0:00:00.306659|100|11|5
21-08-05 12:29:36|TAG|134|5|1.5|10|0.25|500|413816|0:00:00.139620|94|5|5
21-08-05 12:29:36|TAG|135|5|1.5|10|0.25|500|560697|0:00:00.269830|100|6|5
21-08-05 12:29:37|TAG|136|5|1.5|10|0.25|500|398210|0:00:00.086692|100|0|5
21-08-05 12:29:38|TAG|137|5|1.5|10|0.25|500|416164|0:00:00.071252|98|0|5
21-08-05 12:29:39|TAG|138|5|1.5|10|0.25|500|529662|0:00:00.184541|85|6|5
21-08-05 12:29:40|TAG|139|5|1.5|10|0.25|500|631482|0:00:00.281419|100|5|5
21-08-05 12:29:41|TAG|140|5|1.5|10|0.25|500|398599|0:00:00.053366|100|0|5
21-08-05 12:29:41|TAG|141|5|1.5|10|0.25|500|487135|0:00:00.143341|100|6|5
21-08-05 12:29:43|TAG|142|5|1.5|10|0.25|500|1435188|0:00:01.086445|94|9|5
21-08-05 12:29:44|TAG|143|5|1.5|10|0.25|500|475438|0:00:00.125312|87|4|5
21-08-05 12:29:45|TAG|144|5|1.5|10|0.25|500|1000020|0:00:00.660802|94|14|5
21-08-05 12:29:46|TAG|145|5|1.5|10|0.25|500|457805|0:00:00.178156|100|4|5
21-08-05 12:29:47|TAG|146|5|1.5|10|0.25|500|629892|0:00:00.339498|98|5|5
21-08-05 12:29:48|TAG|147|5|1.5|10|0.25|500|516716|0:00:00.137992|93|7|5
21-08-05 12:29:49|TAG|148|5|1.5|10|0.25|500|463277|0:00:00.114150|100|3|5
21-08-05 12:29:56|TAG|149|5|1.5|10|0.25|500|6865650|0:00:06.517575|90|9|5
21-08-05 12:29:57|TAG|150|5|1.5|10|0.25|500|366658|0:00:00.076323|100|1|5
21-08-05 12:29:57|TAG|151|5|1.5|10|0.25|500|391069|0:00:00.048176|100|2|5
21-08-05 12:29:58|TAG|152|5|1.5|10|0.25|500|440070|0:00:00.097813|94|3|5
21-08-05 12:30:00|TAG|153|5|1.5|10|0.25|500|1184952|0:00:00.835066|96|4|5
21-08-05 12:30:01|TAG|154|5|1.5|10|0.25|500|576300|0:00:00.231761|91|9|5
21-08-05 12:30:02|TAG|155|5|1.5|10|0.25|500|411341|0:00:00.067308|91|0|5
21-08-05 12:30:03|TAG|156|5|1.5|10|0.25|500|730706|0:00:00.385412|98|6|5
21-08-05 12:30:03|TAG|157|5|1.5|10|0.25|500|397165|0:00:00.044949|97|1|5
21-08-05 12:30:04|TAG|158|5|1.5|10|0.25|500|386605|0:00:00.041608|100|2|5
21-08-05 12:30:05|TAG|159|5|1.5|10|0.25|500|445801|0:00:00.105184|100|0|5
21-08-05 12:30:06|TAG|160|5|1.5|10|0.25|500|334262|0:00:00.037127|100|1|5
21-08-05 12:30:07|TAG|161|5|1.5|10|0.25|500|839551|0:00:00.541586|84|4|5
21-08-05 12:30:07|TAG|162|5|1.5|10|0.25|500|362306|0:00:00.041511|80|1|5
21-08-05 12:30:08|TAG|163|5|1.5|10|0.25|500|571481|0:00:00.225859|86|3|5
21-08-05 12:30:09|TAG|164|5|1.5|10|0.25|500|398000|0:00:00.045252|99|3|5
21-08-05 12:30:10|TAG|165|5|1.5|10|0.25|500|488873|0:00:00.143355|95|3|5
21-08-05 12:30:11|TAG|166|5|1.5|10|0.25|500|850799|0:00:00.508146|100|4|5
21-08-05 12:30:12|TAG|167|5|1.5|10|0.25|500|513156|0:00:00.165555|95|8|5
21-08-05 12:30:13|TAG|168|5|1.5|10|0.25|500|479375|0:00:00.131295|98|4|5
21-08-05 12:30:16|TAG|169|5|1.5|10|0.25|500|2697070|0:00:02.359641|97|19|5
21-08-05 12:30:17|TAG|170|5|1.5|10|0.25|500|367498|0:00:00.079911|100|1|5
21-08-05 12:30:18|TAG|171|5|1.5|10|0.25|500|759260|0:00:00.429063|95|7|5
21-08-05 12:30:19|TAG|172|5|1.5|10|0.25|500|461973|0:00:00.121004|100|6|5
21-08-05 12:30:19|TAG|173|5|1.5|10|0.25|500|384681|0:00:00.036231|100|1|5
21-08-05 12:30:20|TAG|174|5|1.5|10|0.25|500|393595|0:00:00.048295|84|1|5
21-08-05 12:30:21|TAG|175|5|1.5|10|0.25|500|931199|0:00:00.587131|100|14|5
21-08-05 12:30:22|TAG|176|5|1.5|10|0.25|500|621143|0:00:00.276034|100|4|5
21-08-05 12:30:23|TAG|177|5|1.5|10|0.25|500|437144|0:00:00.089626|97|1|5
21-08-05 12:30:24|TAG|178|5|1.5|10|0.25|500|396601|0:00:00.047469|100|1|5
21-08-05 12:30:25|TAG|179|5|1.5|10|0.25|500|785897|0:00:00.450404|96|10|5
21-08-05 12:30:26|TAG|180|5|1.5|10|0.25|500|526498|0:00:00.228884|100|13|5
21-08-05 12:30:27|TAG|181|5|1.5|10|0.25|500|369950|0:00:00.071627|100|5|5
21-08-05 12:30:27|TAG|182|5|1.5|10|0.25|500|403473|0:00:00.091060|100|3|5
21-08-05 12:30:28|TAG|183|5|1.5|10|0.25|500|510855|0:00:00.164123|98|10|5
21-08-05 12:30:29|TAG|184|5|1.5|10|0.25|500|920843|0:00:00.577099|100|7|5
21-08-05 12:30:30|TAG|185|5|1.5|10|0.25|500|400715|0:00:00.055191|100|1|5
21-08-05 12:30:31|TAG|186|5|1.5|10|0.25|500|463751|0:00:00.115830|90|4|5
21-08-05 12:30:32|TAG|187|5|1.5|10|0.25|500|468013|0:00:00.123814|100|4|5
21-08-05 12:30:33|TAG|188|5|1.5|10|0.25|500|483237|0:00:00.140699|82|6|5
21-08-05 12:30:34|TAG|189|5|1.5|10|0.25|500|486972|0:00:00.145316|84|2|5
21-08-05 12:30:34|TAG|190|5|1.5|10|0.25|500|406065|0:00:00.060678|95|3|5
21-08-05 12:30:35|TAG|191|5|1.5|10|0.25|500|489901|0:00:00.167065|99|2|5
21-08-05 12:30:37|TAG|192|5|1.5|10|0.25|500|1308278|0:00:01.004743|93|0|5
21-08-05 12:30:38|TAG|193|5|1.5|10|0.25|500|380305|0:00:00.068774|88|1|5
21-08-05 12:30:38|TAG|194|5|1.5|10|0.25|500|458664|0:00:00.114481|94|2|5
21-08-05 12:30:39|TAG|195|5|1.5|10|0.25|500|414605|0:00:00.067944|86|0|5
21-08-05 12:30:40|TAG|196|5|1.5|10|0.25|500|539329|0:00:00.191174|96|9|5
21-08-05 12:30:41|TAG|197|5|1.5|10|0.25|500|408477|0:00:00.066187|90|0|5
21-08-05 12:30:42|TAG|198|5|1.5|10|0.25|500|525501|0:00:00.181289|93|5|5
21-08-05 12:30:43|TAG|199|5|1.5|10|0.25|500|515211|0:00:00.171456|88|5|5
21-08-05 12:30:43|TAG|0|5|1.5|10|0.25|500|429137|0:00:00.087864|100|4|6
21-08-05 12:30:45|TAG|1|5|1.5|10|0.25|500|1077563|0:00:00.732802|86|13|6
21-08-05 12:30:46|TAG|2|5|1.5|10|0.25|500|527677|0:00:00.253045|97|8|6
21-08-05 12:31:53|TAG|3|5|1.5|10|0.25|500|66635469|0:01:06.325973|100|20|6
21-08-05 12:31:54|TAG|4|5|1.5|10|0.25|500|429667|0:00:00.078746|100|2|6
21-08-05 12:31:54|TAG|5|5|1.5|10|0.25|500|493750|0:00:00.147477|91|1|6
21-08-05 12:31:55|TAG|6|5|1.5|10|0.25|500|510427|0:00:00.170369|100|3|6
21-08-05 12:31:56|TAG|7|5|1.5|10|0.25|500|677487|0:00:00.385862|97|5|6
21-08-05 12:31:57|TAG|8|5|1.5|10|0.25|500|451250|0:00:00.146778|98|8|6
21-08-05 12:32:04|TAG|9|5|1.5|10|0.25|500|6874108|0:00:06.559957|88|24|6
21-08-05 12:32:05|TAG|10|5|1.5|10|0.25|500|400857|0:00:00.054722|100|4|6
21-08-05 12:32:06|TAG|11|5|1.5|10|0.25|500|420876|0:00:00.134182|100|2|6
21-08-05 12:32:07|TAG|12|5|1.5|10|0.25|500|512009|0:00:00.219760|98|7|6
21-08-05 12:32:07|TAG|13|5|1.5|10|0.25|500|368370|0:00:00.060590|85|0|6
21-08-05 12:32:13|TAG|14|5|1.5|10|0.25|500|5628175|0:00:05.282583|96|28|6
21-08-05 12:32:14|TAG|15|5|1.5|10|0.25|500|483479|0:00:00.137060|100|7|6
21-08-05 12:32:15|TAG|16|5|1.5|10|0.25|500|597043|0:00:00.252088|93|3|6
21-08-05 12:32:18|TAG|17|5|1.5|10|0.25|500|2286364|0:00:01.985129|93|15|6
21-08-05 12:32:19|TAG|18|5|1.5|10|0.25|500|540171|0:00:00.198578|100|5|6
21-08-05 12:32:20|TAG|19|5|1.5|10|0.25|500|400762|0:00:00.041053|100|1|6
21-08-05 12:32:20|TAG|20|5|1.5|10|0.25|500|428773|0:00:00.076267|96|3|6
21-08-05 12:32:26|TAG|21|5|1.5|10|0.25|500|4965007|0:00:04.624258|100|16|6
21-08-05 12:32:26|TAG|22|5|1.5|10|0.25|500|361558|0:00:00.070104|92|3|6
21-08-05 12:32:29|TAG|23|5|1.5|10|0.25|500|2272952|0:00:01.957880|99|14|6
21-08-05 12:32:35|TAG|24|5|1.5|10|0.25|500|5892155|0:00:05.538748|99|11|6
21-08-05 12:32:37|TAG|25|5|1.5|10|0.25|500|1302999|0:00:01.010408|100|12|6
21-08-05 12:32:38|TAG|26|5|1.5|10|0.25|500|358242|0:00:00.046304|76|1|6
21-08-05 12:32:39|TAG|27|5|1.5|10|0.25|500|543226|0:00:00.177773|96|8|6
21-08-05 12:32:39|TAG|28|5|1.5|10|0.25|500|477318|0:00:00.121727|98|0|6
21-08-05 12:32:40|TAG|29|5|1.5|10|0.25|500|421050|0:00:00.068762|100|5|6
21-08-05 12:32:41|TAG|30|5|1.5|10|0.25|500|472571|0:00:00.118150|90|0|6
21-08-05 12:32:42|TAG|31|5|1.5|10|0.25|500|459497|0:00:00.108622|100|4|6
21-08-05 12:32:43|TAG|32|5|1.5|10|0.25|500|384955|0:00:00.039703|100|5|6
21-08-05 12:32:44|TAG|33|5|1.5|10|0.25|500|1158424|0:00:00.811041|100|10|6
21-08-05 12:32:45|TAG|34|5|1.5|10|0.25|500|431889|0:00:00.087399|100|2|6
21-08-05 12:32:46|TAG|35|5|1.5|10|0.25|500|378908|0:00:00.072386|100|1|6
21-08-05 12:32:46|TAG|36|5|1.5|10|0.25|500|324534|0:00:00.032624|84|4|6
21-08-05 12:32:47|TAG|37|5|1.5|10|0.25|500|652323|0:00:00.356446|93|8|6
21-08-05 12:32:48|TAG|38|5|1.5|10|0.25|500|437907|0:00:00.125718|77|6|6
21-08-05 12:32:49|TAG|39|5|1.5|10|0.25|500|982882|0:00:00.623056|94|11|6
21-08-05 12:32:50|TAG|40|5|1.5|10|0.25|500|539683|0:00:00.190998|100|4|6
21-08-05 12:32:51|TAG|41|5|1.5|10|0.25|500|526072|0:00:00.176775|96|8|6
21-08-05 12:32:52|TAG|42|5|1.5|10|0.25|500|753288|0:00:00.408827|100|7|6
21-08-05 12:32:53|TAG|43|5|1.5|10|0.25|500|414961|0:00:00.067464|100|0|6
21-08-05 12:32:55|TAG|44|5|1.5|10|0.25|500|1988380|0:00:01.648133|95|14|6
21-08-05 12:32:56|TAG|45|5|1.5|10|0.25|500|374689|0:00:00.083274|96|5|6
21-08-05 12:32:57|TAG|46|5|1.5|10|0.25|500|453012|0:00:00.131968|100|5|6
21-08-05 12:32:58|TAG|47|5|1.5|10|0.25|500|358660|0:00:00.058074|100|3|6
21-08-05 12:32:59|TAG|48|5|1.5|10|0.25|500|609150|0:00:00.254764|100|1|6
21-08-05 12:32:59|TAG|49|5|1.5|10|0.25|500|420303|0:00:00.074346|90|4|6
21-08-05 12:33:00|TAG|50|5|1.5|10|0.25|500|503741|0:00:00.156546|100|1|6
21-08-05 12:33:01|TAG|51|5|1.5|10|0.25|500|468174|0:00:00.124339|100|10|6
21-08-05 12:33:02|TAG|52|5|1.5|10|0.25|500|397002|0:00:00.051652|100|4|6
21-08-05 12:33:03|TAG|53|5|1.5|10|0.25|500|1199509|0:00:00.850588|96|6|6
21-08-05 12:33:04|TAG|54|5|1.5|10|0.25|500|665619|0:00:00.318696|84|7|6
21-08-05 12:33:05|TAG|55|5|1.5|10|0.25|500|514495|0:00:00.165546|82|3|6
21-08-05 12:33:06|TAG|56|5|1.5|10|0.25|500|318482|0:00:00.033016|97|5|6
21-08-05 12:33:07|TAG|57|5|1.5|10|0.25|500|385809|0:00:00.090131|88|4|6
21-08-05 12:33:08|TAG|58|5|1.5|10|0.25|500|1470330|0:00:01.182148|99|16|6
21-08-05 12:33:09|TAG|59|5|1.5|10|0.25|500|494295|0:00:00.132371|98|3|6
21-08-05 12:33:12|TAG|60|5|1.5|10|0.25|500|2427933|0:00:02.070845|90|13|6
21-08-05 12:33:13|TAG|61|5|1.5|10|0.25|500|412435|0:00:00.066639|100|2|6
21-08-05 12:33:14|TAG|62|5|1.5|10|0.25|500|500533|0:00:00.155191|81|4|6
21-08-05 12:33:15|TAG|63|5|1.5|10|0.25|500|760228|0:00:00.403118|94|11|6
21-08-05 12:33:16|TAG|64|5|1.5|10|0.25|500|388668|0:00:00.064350|93|1|6
21-08-05 12:33:18|TAG|65|5|1.5|10|0.25|500|1643318|0:00:01.348171|97|11|6
21-08-05 12:33:18|TAG|66|5|1.5|10|0.25|500|401336|0:00:00.048130|100|1|6
21-08-05 12:33:19|TAG|67|5|1.5|10|0.25|500|421773|0:00:00.055276|94|5|6
21-08-05 12:33:20|TAG|68|5|1.5|10|0.25|500|615682|0:00:00.250482|99|6|6
21-08-05 12:33:22|TAG|69|5|1.5|10|0.25|500|1014406|0:00:00.643636|93|8|6
21-08-05 12:33:32|TAG|70|5|1.5|10|0.25|500|9607530|0:00:09.231460|91|27|6
21-08-05 12:33:33|TAG|71|5|1.5|10|0.25|500|388322|0:00:00.038864|100|1|6
21-08-05 12:33:33|TAG|72|5|1.5|10|0.25|500|414849|0:00:00.063171|99|4|6
21-08-05 12:33:34|TAG|73|5|1.5|10|0.25|500|614475|0:00:00.263134|95|6|6
21-08-05 12:33:36|TAG|74|5|1.5|10|0.25|500|778631|0:00:00.428158|89|6|6
21-08-05 12:33:38|TAG|75|5|1.5|10|0.25|500|2122939|0:00:01.827169|99|16|6
21-08-05 12:33:39|TAG|76|5|1.5|10|0.25|500|431317|0:00:00.041872|76|1|6
21-08-05 12:33:41|TAG|77|5|1.5|10|0.25|500|1374367|0:00:01.014102|93|14|6
21-08-05 12:33:43|TAG|78|5|1.5|10|0.25|500|1439506|0:00:01.080124|98|16|6
21-08-05 12:33:43|TAG|79|5|1.5|10|0.25|500|478454|0:00:00.115542|100|6|6
21-08-05 12:34:05|TAG|80|5|1.5|10|0.25|500|21496894|0:00:21.124193|100|21|6
21-08-05 12:34:07|TAG|81|5|1.5|10|0.25|500|783930|0:00:00.477750|95|4|6
21-08-05 12:34:08|TAG|82|5|1.5|10|0.25|500|927766|0:00:00.590889|100|9|6
21-08-05 12:34:09|TAG|83|5|1.5|10|0.25|500|700673|0:00:00.353354|98|4|6
21-08-05 12:34:10|TAG|84|5|1.5|10|0.25|500|413182|0:00:00.048796|100|1|6
21-08-05 12:34:11|TAG|85|5|1.5|10|0.25|500|651197|0:00:00.305753|98|6|6
21-08-05 12:34:13|TAG|86|5|1.5|10|0.25|500|1609151|0:00:01.262914|87|15|6
21-08-05 12:34:14|TAG|87|5|1.5|10|0.25|500|742798|0:00:00.388646|97|20|6
21-08-05 12:34:15|TAG|88|5|1.5|10|0.25|500|533256|0:00:00.190530|92|6|6
21-08-05 12:34:16|TAG|89|5|1.5|10|0.25|500|423099|0:00:00.079647|97|2|6
21-08-05 12:34:16|TAG|90|5|1.5|10|0.25|500|334330|0:00:00.053783|100|2|6
21-08-05 12:34:17|TAG|91|5|1.5|10|0.25|500|882887|0:00:00.586285|100|5|6
21-08-05 12:34:18|TAG|92|5|1.5|10|0.25|500|651524|0:00:00.364526|87|11|6
21-08-05 12:34:19|TAG|93|5|1.5|10|0.25|500|539861|0:00:00.183177|97|10|6
21-08-05 12:34:20|TAG|94|5|1.5|10|0.25|500|619647|0:00:00.259452|92|7|6
21-08-05 12:34:21|TAG|95|5|1.5|10|0.25|500|619828|0:00:00.267576|98|6|6
21-08-05 12:34:25|TAG|96|5|1.5|10|0.25|500|3356518|0:00:03.001099|97|22|6
21-08-05 12:34:26|TAG|97|5|1.5|10|0.25|500|425278|0:00:00.068508|82|10|6
21-08-05 12:34:26|TAG|98|5|1.5|10|0.25|500|315727|0:00:00.029211|89|0|6
21-08-05 12:34:27|TAG|99|5|1.5|10|0.25|500|441597|0:00:00.159479|100|4|6
21-08-05 12:34:28|TAG|100|5|1.5|10|0.25|500|313167|0:00:00.033427|100|3|6
21-08-05 12:34:34|TAG|101|5|1.5|10|0.25|500|5684994|0:00:05.353593|80|16|6
21-08-05 12:34:35|TAG|102|5|1.5|10|0.25|500|409973|0:00:00.035894|96|0|6
21-08-05 12:34:36|TAG|103|5|1.5|10|0.25|500|411530|0:00:00.064411|99|4|6
21-08-05 12:34:37|TAG|104|5|1.5|10|0.25|500|919819|0:00:00.613268|97|12|6
21-08-05 12:34:40|TAG|105|5|1.5|10|0.25|500|2522865|0:00:02.183584|98|13|6
21-08-05 12:34:41|TAG|106|5|1.5|10|0.25|500|448223|0:00:00.081495|100|2|6
21-08-05 12:34:41|TAG|107|5|1.5|10|0.25|500|400775|0:00:00.042314|100|1|6
21-08-05 12:34:43|TAG|108|5|1.5|10|0.25|500|829697|0:00:00.479613|93|7|6
21-08-05 12:34:44|TAG|109|5|1.5|10|0.25|500|637216|0:00:00.249994|99|6|6
21-08-05 12:34:45|TAG|110|5|1.5|10|0.25|500|598871|0:00:00.194128|96|3|6
21-08-05 12:34:45|TAG|111|5|1.5|10|0.25|500|417286|0:00:00.048465|100|0|6
21-08-05 12:34:46|TAG|112|5|1.5|10|0.25|500|412897|0:00:00.081368|100|2|6
21-08-05 12:34:47|TAG|113|5|1.5|10|0.25|500|1049803|0:00:00.758148|98|7|6
21-08-05 12:34:48|TAG|114|5|1.5|10|0.25|500|383637|0:00:00.105274|76|1|6
21-08-05 12:34:50|TAG|115|5|1.5|10|0.25|500|1147010|0:00:00.790711|86|1|6
21-08-05 12:34:51|TAG|116|5|1.5|10|0.25|500|584060|0:00:00.232652|99|13|6
21-08-05 12:34:52|TAG|117|5|1.5|10|0.25|500|1270549|0:00:00.916129|95|8|6
21-08-05 12:34:53|TAG|118|5|1.5|10|0.25|500|444155|0:00:00.101385|100|1|6
21-08-05 12:34:54|TAG|119|5|1.5|10|0.25|500|394637|0:00:00.043581|100|2|6
21-08-05 12:34:55|TAG|120|5|1.5|10|0.25|500|649441|0:00:00.299635|100|10|6
21-08-05 12:34:56|TAG|121|5|1.5|10|0.25|500|1348734|0:00:01.011962|93|18|6
21-08-05 12:35:05|TAG|122|5|1.5|10|0.25|500|8314007|0:00:08.015644|69|10|6
21-08-05 12:35:08|TAG|123|5|1.5|10|0.25|500|2877385|0:00:02.590190|97|18|6
21-08-05 12:35:09|TAG|124|5|1.5|10|0.25|500|610566|0:00:00.315177|99|9|6
21-08-05 12:35:10|TAG|125|5|1.5|10|0.25|500|639515|0:00:00.321787|100|6|6
21-08-05 12:35:14|TAG|126|5|1.5|10|0.25|500|3154261|0:00:02.839509|100|18|6
21-08-05 12:35:15|TAG|127|5|1.5|10|0.25|500|1149460|0:00:00.834654|98|2|6
21-08-05 12:35:16|TAG|128|5|1.5|10|0.25|500|367617|0:00:00.072076|100|0|6
21-08-05 12:35:17|TAG|129|5|1.5|10|0.25|500|500715|0:00:00.196057|100|5|6
21-08-05 12:35:18|TAG|130|5|1.5|10|0.25|500|471650|0:00:00.136198|92|3|6
21-08-05 12:35:18|TAG|131|5|1.5|10|0.25|500|445878|0:00:00.138308|99|2|6
21-08-05 12:35:19|TAG|132|5|1.5|10|0.25|500|574224|0:00:00.294697|92|3|6
21-08-05 12:35:20|TAG|133|5|1.5|10|0.25|500|550731|0:00:00.274467|100|11|6
21-08-05 12:35:21|TAG|134|5|1.5|10|0.25|500|420590|0:00:00.141313|94|5|6
21-08-05 12:35:22|TAG|135|5|1.5|10|0.25|500|551242|0:00:00.273794|100|6|6
21-08-05 12:35:23|TAG|136|5|1.5|10|0.25|500|398172|0:00:00.081548|100|0|6
21-08-05 12:35:23|TAG|137|5|1.5|10|0.25|500|394684|0:00:00.061881|98|0|6
21-08-05 12:35:24|TAG|138|5|1.5|10|0.25|500|469369|0:00:00.164153|85|6|6
21-08-05 12:35:25|TAG|139|5|1.5|10|0.25|500|556038|0:00:00.253568|100|5|6
21-08-05 12:35:26|TAG|140|5|1.5|10|0.25|500|349882|0:00:00.048265|100|0|6
21-08-05 12:35:26|TAG|141|5|1.5|10|0.25|500|410994|0:00:00.122155|100|6|6
21-08-05 12:35:29|TAG|142|5|1.5|10|0.25|500|2580537|0:00:02.272424|90|17|6
21-08-05 12:35:30|TAG|143|5|1.5|10|0.25|500|459610|0:00:00.118294|87|4|6
21-08-05 12:35:32|TAG|144|5|1.5|10|0.25|500|1148113|0:00:00.803524|94|14|6
21-08-05 12:35:33|TAG|145|5|1.5|10|0.25|500|566080|0:00:00.231193|100|4|6
21-08-05 12:35:34|TAG|146|5|1.5|10|0.25|500|743198|0:00:00.394342|98|5|6
21-08-05 12:35:34|TAG|147|5|1.5|10|0.25|500|483170|0:00:00.142926|93|7|6
21-08-05 12:35:35|TAG|148|5|1.5|10|0.25|500|466066|0:00:00.116129|100|3|6
21-08-05 12:35:53|TAG|149|5|1.5|10|0.25|500|17352842|0:00:16.993470|96|23|6
21-08-05 12:35:54|TAG|150|5|1.5|10|0.25|500|433525|0:00:00.089166|100|1|6
21-08-05 12:35:55|TAG|151|5|1.5|10|0.25|500|373081|0:00:00.042126|100|2|6
21-08-05 12:35:56|TAG|152|5|1.5|10|0.25|500|442502|0:00:00.095775|94|2|6
21-08-05 12:35:57|TAG|153|5|1.5|10|0.25|500|1058257|0:00:00.737852|99|6|6
21-08-05 12:35:58|TAG|154|5|1.5|10|0.25|500|531819|0:00:00.212665|91|9|6
21-08-05 12:35:59|TAG|155|5|1.5|10|0.25|500|374680|0:00:00.055732|91|0|6
21-08-05 12:36:00|TAG|156|5|1.5|10|0.25|500|1130468|0:00:00.752957|100|8|6
21-08-05 12:36:01|TAG|157|5|1.5|10|0.25|500|348129|0:00:00.040345|97|1|6
21-08-05 12:36:02|TAG|158|5|1.5|10|0.25|500|350851|0:00:00.038814|100|2|6
21-08-05 12:36:02|TAG|159|5|1.5|10|0.25|500|401402|0:00:00.097737|100|0|6
21-08-05 12:36:03|TAG|160|5|1.5|10|0.25|500|362766|0:00:00.045717|100|1|6
21-08-05 12:36:04|TAG|161|5|1.5|10|0.25|500|966763|0:00:00.617210|87|4|6
21-08-05 12:36:05|TAG|162|5|1.5|10|0.25|500|391662|0:00:00.043012|80|1|6
21-08-05 12:36:06|TAG|163|5|1.5|10|0.25|500|585755|0:00:00.241457|86|3|6
21-08-05 12:36:07|TAG|164|5|1.5|10|0.25|500|321130|0:00:00.037687|99|3|6
21-08-05 12:36:07|TAG|165|5|1.5|10|0.25|500|410311|0:00:00.118172|95|3|6
21-08-05 12:36:08|TAG|166|5|1.5|10|0.25|500|750409|0:00:00.462112|100|4|6
21-08-05 12:36:09|TAG|167|5|1.5|10|0.25|500|513821|0:00:00.151760|95|8|6
21-08-05 12:36:10|TAG|168|5|1.5|10|0.25|500|523526|0:00:00.134940|98|4|6
21-08-05 12:36:13|TAG|169|5|1.5|10|0.25|500|2911796|0:00:02.563569|97|19|6
21-08-05 12:36:14|TAG|170|5|1.5|10|0.25|500|436126|0:00:00.092645|100|1|6
21-08-05 12:36:15|TAG|171|5|1.5|10|0.25|500|791574|0:00:00.436344|95|7|6
21-08-05 12:36:16|TAG|172|5|1.5|10|0.25|500|452121|0:00:00.117182|100|6|6
21-08-05 12:36:17|TAG|173|5|1.5|10|0.25|500|326529|0:00:00.031262|100|1|6
21-08-05 12:36:17|TAG|174|5|1.5|10|0.25|500|349075|0:00:00.042877|84|1|6
21-08-05 12:36:19|TAG|175|5|1.5|10|0.25|500|755919|0:00:00.467423|100|14|6
21-08-05 12:36:20|TAG|176|5|1.5|10|0.25|500|638094|0:00:00.274412|100|4|6
21-08-05 12:36:20|TAG|177|5|1.5|10|0.25|500|474362|0:00:00.089383|97|1|6
21-08-05 12:36:21|TAG|178|5|1.5|10|0.25|500|401477|0:00:00.049053|100|1|6
21-08-05 12:36:22|TAG|179|5|1.5|10|0.25|500|826204|0:00:00.477944|96|10|6
21-08-05 12:36:23|TAG|180|5|1.5|10|0.25|500|605378|0:00:00.263640|100|13|6
21-08-05 12:36:24|TAG|181|5|1.5|10|0.25|500|436794|0:00:00.084488|100|5|6
21-08-05 12:36:25|TAG|182|5|1.5|10|0.25|500|460045|0:00:00.103771|100|3|6
21-08-05 12:36:26|TAG|183|5|1.5|10|0.25|500|511690|0:00:00.163338|98|10|6
21-08-05 12:36:27|TAG|184|5|1.5|10|0.25|500|793727|0:00:00.506362|100|7|6
21-08-05 12:36:28|TAG|185|5|1.5|10|0.25|500|342314|0:00:00.046129|100|1|6
21-08-05 12:36:28|TAG|186|5|1.5|10|0.25|500|397241|0:00:00.098100|90|4|6
21-08-05 12:36:29|TAG|187|5|1.5|10|0.25|500|504518|0:00:00.121840|100|4|6
21-08-05 12:36:30|TAG|188|5|1.5|10|0.25|500|561426|0:00:00.143052|82|6|6
21-08-05 12:36:31|TAG|189|5|1.5|10|0.25|500|496910|0:00:00.144954|84|3|6
21-08-05 12:36:32|TAG|190|5|1.5|10|0.25|500|459390|0:00:00.066977|95|3|6
21-08-05 12:36:33|TAG|191|5|1.5|10|0.25|500|573356|0:00:00.214888|99|3|6
21-08-05 12:36:35|TAG|192|5|1.5|10|0.25|500|1461780|0:00:01.115791|93|0|6
21-08-05 12:36:35|TAG|193|5|1.5|10|0.25|500|418056|0:00:00.069157|88|1|6
21-08-05 12:36:36|TAG|194|5|1.5|10|0.25|500|449319|0:00:00.111565|94|2|6
21-08-05 12:36:37|TAG|195|5|1.5|10|0.25|500|333960|0:00:00.055365|86|0|6
21-08-05 12:36:38|TAG|196|5|1.5|10|0.25|500|442035|0:00:00.166218|96|9|6
21-08-05 12:36:38|TAG|197|5|1.5|10|0.25|500|333463|0:00:00.054772|90|0|6
21-08-05 12:36:39|TAG|198|5|1.5|10|0.25|500|506656|0:00:00.168460|93|5|6
21-08-05 12:36:40|TAG|199|5|1.5|10|0.25|500|542206|0:00:00.170340|88|5|6
